<svg width="37" height="37" viewBox="0 0 37 37" fill="none" xmlns="http://www.w3.org/2000/svg">
<path fill-rule="evenodd" clip-rule="evenodd" d="M19.868 25.5841L18.1797 27.2724L10.7771 19.8698L10.7771 19.8698L9.08879 18.1815L9.0888 18.1815L9.0888 18.1815L10.7771 16.4932L10.7771 16.4932L18.1797 9.09058L19.868 10.7789L12.4654 18.1815L19.868 25.5841Z" fill="white"/>
<rect width="2.38763" height="18.3664" transform="matrix(4.37114e-08 1 1 -4.37114e-08 12.4883 16.8975)" fill="white"/>
</svg>
