<svg width="32" height="32" viewBox="0 0 32 32" fill="none" xmlns="http://www.w3.org/2000/svg">
<rect x="0.5" y="0.5" width="31" height="31" rx="3.5" stroke="#3F39CB"/>
<path d="M11.4286 12.3566V23.2137H8V12.3566H11.4286ZM8 9.19659C8 8.39658 8.68571 7.78516 9.71429 7.78516C10.7429 7.78516 11.3886 8.39658 11.4286 9.19659C11.4286 9.99659 10.7886 10.6423 9.71429 10.6423C8.68571 10.6423 8 9.99659 8 9.19659ZM24 23.2137H20.5714C20.5714 23.2137 20.5714 17.9223 20.5714 17.4994C20.5714 16.3566 20 15.2137 18.5714 15.1909H18.5257C17.1429 15.1909 16.5714 16.368 16.5714 17.4994C16.5714 18.0194 16.5714 23.2137 16.5714 23.2137H13.1429V12.3566H16.5714V13.8194C16.5714 13.8194 17.6743 12.3566 19.8914 12.3566C22.16 12.3566 24 13.9166 24 17.0766V23.2137Z" fill="#3F39CB"/>
</svg>
