<svg xmlns="http://www.w3.org/2000/svg" width="116" height="118" fill="none" viewBox="0 0 116 118">
    <path stroke="#FBC63E" d="M8.53268 1.83398L0.589844 4.3372"/>
    <path stroke="#FBC63E" d="M36.7122 1.39552L29.1422 4.77731"/>
    <path stroke="#FBC63E" d="M8.15377 13.9922L0.210938 16.4954"/>
    <path stroke="#FBC63E" d="M7.89905 25.5829L0.464217 29.2228"/>
    <path stroke="#FBC63E" d="M7.43542 37.0699L0.931139 42.0542"/>
    <path stroke="#FBC63E" d="M7.64635 49.0386L1.14208 54.023"/>
    <path stroke="#FBC63E" d="M7.45806 60.991L1.33185 66.3866"/>
    <path stroke="#FBC63E" d="M6.88673 72.8866L1.86217 79.2185"/>
    <path stroke="#FBC63E" d="M6.7422 85.5135L1.71764 91.8455"/>
    <path stroke="#FBC63E" d="M6.38026 96.7274L2.08079 103.52"/>
    <path stroke="#FBC63E" d="M6.99354 108.399L2.69407 115.192"/>
    <path stroke="#FBC63E" d="M19.3027 108.854L16.1026 116.168"/>
    <path stroke="#FBC63E" d="M31.4176 108.962L29.1597 116.584"/>
    <path stroke="#FBC63E" d="M45.3002 109.065L43.4619 116.788"/>
    <path stroke="#FBC63E" d="M57.1612 109.019L57.0491 116.935"/>
    <path stroke="#FBC63E" d="M69.3872 109.171L70.7965 116.974"/>
    <path stroke="#FBC63E" d="M81.74 109.584L85.9041 116.451"/>
    <path stroke="#FBC63E" d="M95.019 109.933L100.197 116.153"/>
    <path stroke="#FBC63E" d="M107.025 109.797L113.41 114.918"/>
    <path stroke="#FBC63E" d="M106.873 97.5414L113.257 102.662"/>
    <path stroke="#FBC63E" d="M106.595 85.7265L113.533 90.1566"/>
    <path stroke="#FBC63E" d="M106.686 74.4518L113.998 78.3077"/>
    <path stroke="#FBC63E" d="M106.373 61.0714L113.171 65.6921"/>
    <path stroke="#FBC63E" d="M107.439 48.4704L113.105 54.2977"/>
    <path stroke="#FBC63E" d="M94.7687 97.9821L100.435 103.809"/>
    <path stroke="#FBC63E" d="M82.4278 96.5056L85.5433 103.853"/>
    <path stroke="#FBC63E" d="M69.7358 96.1937L71.4787 103.936"/>
    <path stroke="#FBC63E" d="M57.3681 96.1572L57.0174 104.066"/>
    <path stroke="#FBC63E" d="M44.5202 96.3118L42.8999 104.078"/>
    <path stroke="#FBC63E" d="M33.02 96.5098L29.6064 103.738"/>
    <path stroke="#FBC63E" d="M19.1938 96.9571L15.7803 104.185"/>
    <path stroke="#FBC63E" d="M19.7528 85.0837L15.2214 91.74"/>
    <path stroke="#FBC63E" d="M32.2213 84.4725L29.0002 91.7791"/>
    <path stroke="#FBC63E" d="M45.5221 84.7987L42.301 92.1052"/>
    <path stroke="#FBC63E" d="M56.8652 85.2595L58.1907 93.0755"/>
    <path stroke="#FBC63E" d="M69.58 84.0837L70.9056 91.8998"/>
    <path stroke="#FBC63E" d="M82.1258 85.1039L85.5901 92.3103"/>
    <path stroke="#FBC63E" d="M81.1532 72.1859L84.6174 79.3923"/>
    <path stroke="#FBC63E" d="M70.2648 71.8377L69.7859 79.7406"/>
    <path stroke="#FBC63E" d="M56.8586 71.9256L56.3797 79.8285"/>
    <path stroke="#FBC63E" d="M45.9998 72.174L43.0324 79.576"/>
    <path stroke="#FBC63E" d="M31.7068 71.924L28.7395 79.326"/>
    <path stroke="#FBC63E" d="M19.4723 72.2069L15.2536 79.0444"/>
    <path stroke="#FBC63E" d="M19.7946 60.4803L15.5758 67.3178"/>
    <path stroke="#FBC63E" d="M32.6539 60.4803L28.4352 67.3178"/>
    <path stroke="#FBC63E" d="M45.5351 60.1625L42.7848 67.6391"/>
    <path stroke="#FBC63E" d="M58.3323 60.2661L57.9648 68.1744"/>
    <path stroke="#FBC63E" d="M71.1331 59.7661L70.7655 67.6744"/>
    <path stroke="#FBC63E" d="M82.6626 59.9137L84.9556 67.527"/>
    <path stroke="#FBC63E" d="M84.4192 47.5733L82.395 55.2544"/>
    <path stroke="#FBC63E" d="M71.7942 48.3233L69.77 56.0044"/>
    <path stroke="#FBC63E" d="M58.9848 48.5989L55.3479 55.729"/>
    <path stroke="#FBC63E" d="M45.0825 48.3236L41.4456 55.4536"/>
    <path stroke="#FBC63E" d="M33.3845 49.1079L27.4235 54.6665"/>
    <path stroke="#FBC63E" d="M20.1989 48.3227L14.238 53.8814"/>
    <path stroke="#FBC63E" d="M20.9567 36.8794L14.9958 42.438"/>
    <path stroke="#FBC63E" d="M21.0484 25.9022L13.3892 29.0996"/>
    <path stroke="#FBC63E" d="M20.978 13.9921L13.3189 17.1894"/>
    <path stroke="#FBC63E" d="M21.2568 1.95821L13.0448 3.48321"/>
    <path stroke="#FBC63E" d="M49.409 1.25938L41.626 4.17706"/>
    <path stroke="#FBC63E" d="M57.772 14.1409L50.581 18.1951"/>
    <path stroke="#FBC63E" d="M76.2825 13.4786L70.139 18.8565"/>
    <path stroke="#FBC63E" d="M76.2825 1.1192L70.139 6.49714"/>
    <path stroke="#FBC63E" d="M91.9475 1.79657L84.7374 5.82048"/>
    <path stroke="#FBC63E" d="M103.075 1.48593L96.2962 6.1315"/>
    <path stroke="#FBC63E" d="M115.204 1.48593L108.425 6.1315"/>
    <path stroke="#FBC63E" d="M92.8541 14.4192L85.3427 17.9157"/>
    <path stroke="#FBC63E" d="M104.909 14.7083L97.3974 18.2048"/>
    <path stroke="#FBC63E" d="M114.682 13.6404L108.801 19.2745"/>
    <path stroke="#FBC63E" d="M60.9224 1.83424L53.7314 5.88843"/>
    <path stroke="#FBC63E" d="M34.2686 36.6146L28.9155 42.7012"/>
    <path stroke="#FBC63E" d="M38.1515 25.7583L30.9342 29.7706"/>
    <path stroke="#FBC63E" d="M54.7508 25.2407L47.7933 29.6442"/>
    <path stroke="#FBC63E" d="M38.2374 13.9927L31.0201 18.005"/>
    <path stroke="#FBC63E" d="M47.8096 36.8803L42.4565 42.9668"/>
    <path stroke="#FBC63E" d="M59.6712 36.2978L56.3126 43.5488"/>
    <path stroke="#FBC63E" d="M63.7443 22.5598L60.4632 29.8425"/>
    <path stroke="#FBC63E" d="M72.1029 36.165L68.7442 43.416"/>
    <path stroke="#FBC63E" d="M74.0205 23.2942L68.3394 29.1089"/>
    <path stroke="#FBC63E" d="M84.8215 36.1083L81.7477 43.4714"/>
    <path stroke="#FBC63E" d="M86.603 22.4715L81.318 28.611"/>
    <path stroke="#FBC63E" d="M94.7058 85.1633L100.497 90.8804"/>
    <path stroke="#FBC63E" d="M94.0125 73.7102L99.8033 79.4273"/>
    <path stroke="#FBC63E" d="M94.6343 60.3736L99.1845 67.0184"/>
    <path stroke="#FBC63E" d="M96.7458 48.3242L97.3424 56.22"/>
    <path stroke="#FBC63E" d="M98.573 36.1638L94.2064 42.9179"/>
    <path stroke="#FBC63E" d="M100.631 23.2895L94.239 28.4024"/>
    <path stroke="#FBC63E" d="M112.995 36.7706L107.015 42.3108"/>
    <path stroke="#FBC63E" d="M113.492 23.8698L106.519 28.2518"/>
</svg>
