<svg width="175" height="103" viewBox="0 0 175 103" fill="none" xmlns="http://www.w3.org/2000/svg">
<path d="M0.0407685 59.3104H3.38379L5.09606 67.4981C5.62605 68.1091 6.31912 68.6794 7.13449 69.2089C7.94986 69.7385 8.84677 70.1866 9.86598 70.5939C10.8852 71.0013 11.9859 71.3271 13.1275 71.5308C14.269 71.7752 15.4513 71.8567 16.6743 71.8567C18.672 71.8567 20.3435 71.653 21.7296 71.2049C23.1157 70.7569 24.2573 70.1458 25.1134 69.3719C25.9695 68.5979 26.6218 67.6203 26.9888 66.5204C27.3964 65.4206 27.6003 64.1985 27.6003 62.895C27.6003 61.3878 27.1926 60.1251 26.418 59.1067C25.6434 58.1291 24.6242 57.2736 23.3196 56.5404C22.0558 55.8479 20.5881 55.1962 18.9574 54.6666C17.3266 54.137 15.6551 53.526 13.9428 52.915C12.2306 52.304 10.559 51.6115 8.9283 50.8375C7.29756 50.0636 5.8299 49.0452 4.56607 47.8639C3.30225 46.6418 2.24227 45.1754 1.46767 43.4645C0.693065 41.7537 0.28538 39.6354 0.28538 37.1099C0.28538 32.6291 1.83458 29.2073 4.89222 26.8447C7.94986 24.4821 12.4344 23.3008 18.3458 23.3008C19.6097 23.3008 20.8735 23.3415 22.1373 23.423C23.4011 23.5045 24.665 23.6267 25.888 23.7896C27.1111 23.9525 28.2933 24.1155 29.3941 24.3192C30.4948 24.5228 31.5548 24.7265 32.5333 24.9302V37.0692H29.1495L27.4372 30.0628C26.3365 29.2481 25.0319 28.5963 23.605 28.026C22.1373 27.4965 20.425 27.2113 18.3866 27.2113C16.6743 27.2113 15.1659 27.3743 13.9428 27.7409C12.7198 28.0668 11.7006 28.5556 10.926 29.1666C10.1514 29.7776 9.5806 30.5108 9.21368 31.3663C8.84677 32.2217 8.68369 33.1993 8.68369 34.2584C8.68369 35.6434 9.09138 36.784 9.86598 37.6802C10.6406 38.5763 11.7006 39.391 12.9644 40.0428C14.2282 40.6946 15.6959 41.3056 17.3266 41.8351C18.9574 42.3647 20.6289 42.935 22.3411 43.5867C24.0534 44.1977 25.7249 44.931 27.3557 45.7049C28.9864 46.5196 30.4541 47.4973 31.7179 48.7193C32.9817 49.9414 34.0009 51.4078 34.8163 53.1187C35.5909 54.8295 35.9986 56.9478 35.9986 59.3918C35.9986 61.8767 35.6317 64.1171 34.9386 66.1538C34.2455 68.1498 33.104 69.8607 31.5548 71.2864C30.0056 72.7121 28.008 73.7712 25.6026 74.5452C23.1973 75.3192 20.262 75.6858 16.8374 75.6858C15.1659 75.6858 13.5351 75.6043 11.9044 75.4414C10.2737 75.2784 8.72446 75.0747 7.2568 74.8303C5.78913 74.5859 4.44377 74.3008 3.17994 73.9342C1.91612 73.6083 0.896907 73.2824 0 72.9565V59.3104H0.0407685Z" fill="#2F516B"/>
<path d="M59.2369 53.3226V71.1645L65.8007 72.1829V74.9528H41.1357V72.1829L47.2102 71.1645V27.6597L40.6465 26.6821V23.9121H65.0668C69.3475 23.9121 72.8944 24.2787 75.7889 24.9712C78.6427 25.6637 80.9665 26.6413 82.6788 27.9041C84.3911 29.1669 85.6549 30.6741 86.3888 32.4257C87.1226 34.1773 87.4895 36.0918 87.4895 38.21C87.4895 39.7987 87.3264 41.3466 86.9595 42.7723C86.5926 44.2388 86.0218 45.5423 85.2065 46.7643C84.3911 47.9864 83.3311 49.0455 82.0265 49.9824C80.7219 50.9193 79.0912 51.6933 77.1751 52.2635L90.8325 71.1645L96.377 72.1829V74.9528H79.825L65.556 53.3226H59.2369ZM75.6259 38.2508C75.6259 36.214 75.422 34.5439 75.0143 33.2404C74.6067 31.9369 73.9544 30.8778 73.0575 30.1445C72.1605 29.3706 71.019 28.841 69.6329 28.5559C68.2468 28.2707 66.5753 28.1078 64.6184 28.1078H59.2777V49.1677H64.8222C66.8199 49.1677 68.5321 48.964 69.9183 48.5567C71.3044 48.1493 72.4052 47.4976 73.2613 46.6421C74.1174 45.746 74.729 44.6461 75.0959 43.2611C75.422 41.8762 75.6259 40.206 75.6259 38.2508Z" fill="#2F516B"/>
<path d="M99.8413 59.3104H103.184L104.897 67.4981C105.427 68.1091 106.12 68.6794 106.935 69.2089C107.75 69.7385 108.647 70.1866 109.667 70.5939C110.686 71.0013 111.786 71.3271 112.928 71.5308C114.07 71.7752 115.252 71.8567 116.475 71.8567C118.473 71.8567 120.144 71.653 121.53 71.2049C122.916 70.7569 124.058 70.1458 124.914 69.3719C125.77 68.5979 126.422 67.6203 126.789 66.5204C127.197 65.4206 127.36 64.1985 127.36 62.895C127.36 61.3878 126.993 60.1251 126.178 59.1067C125.403 58.1291 124.384 57.2736 123.079 56.5404C121.816 55.8479 120.348 55.1962 118.717 54.6666C117.086 54.137 115.415 53.526 113.703 52.915C111.99 52.304 110.319 51.6115 108.688 50.8375C107.057 50.0636 105.59 49.0452 104.326 47.8639C103.062 46.6418 102.002 45.1754 101.227 43.4645C100.453 41.7537 100.045 39.6354 100.045 37.1099C100.045 32.6291 101.594 29.2073 104.652 26.8447C107.71 24.4821 112.194 23.3008 118.106 23.3008C119.369 23.3008 120.633 23.3415 121.897 23.423C123.161 23.5045 124.425 23.6267 125.648 23.7896C126.871 23.9525 128.053 24.1155 129.154 24.3192C130.255 24.5228 131.315 24.7265 132.293 24.9302V37.0692H128.909L127.197 30.0628C126.096 29.2481 124.792 28.5963 123.365 28.026C121.897 27.4965 120.185 27.2113 118.146 27.2113C116.434 27.2113 114.926 27.3743 113.703 27.7409C112.48 28.0668 111.46 28.5556 110.686 29.1666C109.911 29.7776 109.34 30.5108 108.973 31.3663C108.607 32.2217 108.443 33.1993 108.443 34.2584C108.443 35.6434 108.851 36.784 109.626 37.6802C110.4 38.5763 111.46 39.391 112.724 40.0428C113.988 40.6946 115.456 41.3056 117.086 41.8351C118.717 42.3647 120.389 42.935 122.101 43.5867C123.813 44.1977 125.485 44.931 127.115 45.7049C128.746 46.5196 130.214 47.4973 131.478 48.7193C132.741 49.9414 133.761 51.4078 134.576 53.1187C135.351 54.8295 135.758 56.9478 135.758 59.3918C135.758 61.8767 135.391 64.1171 134.698 66.1538C134.005 68.1498 132.864 69.8607 131.315 71.2864C129.765 72.7121 127.768 73.7712 125.362 74.5452C122.957 75.3192 120.022 75.6858 116.597 75.6858C114.926 75.6858 113.295 75.6043 111.664 75.4414C110.033 75.2784 108.484 75.0747 107.017 74.8303C105.549 74.5859 104.204 74.3008 102.94 73.9342C101.676 73.6083 100.657 73.2824 99.7598 72.9565V59.3104H99.8413Z" fill="#2F516B"/>
<path d="M155.777 71.5307L159.691 72.4676V74.9931H140.855V72.4676L144.728 71.5307V42.6089L141.059 41.672V39.1465H155.777V71.5307Z" fill="#2F516B"/>
<path d="M173.145 45.0524C172.493 44.2784 171.515 43.8711 170.495 43.8711C169.639 43.8711 168.824 44.197 168.172 44.7265C166.704 45.9893 166.541 48.2297 167.846 49.6962C168.498 50.4701 169.476 50.8775 170.495 50.8775C171.352 50.8775 172.167 50.5516 172.819 50.0221C174.287 48.7185 174.45 46.4781 173.145 45.0524Z" fill="#F3901D"/>
<path d="M168.944 43.871C169.23 43.7488 169.474 43.6673 169.76 43.5859L169.026 41.5898C168.74 41.6713 168.455 41.712 168.129 41.712L168.944 43.871Z" fill="#A9CF38"/>
<path d="M162.708 32.8325L158.427 30.3477C158.224 30.755 157.979 31.1624 157.734 31.529L162.137 34.0953C162.3 33.6472 162.464 33.1991 162.708 32.8325Z" fill="#A9CF38"/>
<path d="M167.722 30.3477C166.376 30.3477 165.072 30.8365 164.052 31.7326C161.729 33.7286 161.484 37.2726 163.522 39.5945C164.582 40.8165 166.091 41.509 167.722 41.509C169.067 41.509 170.372 41.0202 171.391 40.124C172.491 39.1464 173.185 37.8021 173.266 36.2949C173.348 34.8285 172.899 33.362 171.921 32.2622C170.861 31.0401 169.352 30.3477 167.722 30.3477Z" fill="#00B1B0"/>
<path d="M149.742 16.9043C147.5 16.9043 145.339 17.719 143.667 19.1854C141.792 20.8148 140.691 23.0553 140.528 25.4993C140.365 27.9434 141.181 30.3468 142.771 32.2206C144.524 34.2166 147.051 35.3979 149.742 35.3979C151.984 35.3979 154.145 34.5832 155.817 33.1168C157.692 31.4874 158.793 29.247 158.956 26.8029C159.119 24.3588 158.303 21.9554 156.713 20.1223C154.96 18.0856 152.433 16.9043 149.742 16.9043Z" fill="#C1CD23"/>
<path d="M159.242 4.52157C158.549 1.8738 156.144 0 153.412 0C152.882 0 152.393 0.0814696 151.904 0.203674C148.683 1.05911 146.726 4.35863 147.582 7.57668C148.275 10.2244 150.681 12.0982 153.412 12.0982C153.942 12.0982 154.431 12.0168 154.92 11.8946C158.141 11.0391 160.057 7.73962 159.242 4.52157Z" fill="#EEB111"/>
<path d="M150.926 16.6602C151.415 16.7417 151.904 16.8232 152.393 16.9454L153.046 12.3831C152.557 12.3423 152.067 12.2609 151.578 12.1387L150.926 16.6602Z" fill="#A9CF38"/>
<path d="M4.5258 88.1513H1.26432C0.448948 88.1513 0.0820312 87.7847 0.0820312 87.0515C0.0820312 86.3997 0.245105 85.7072 0.612022 85.0147C1.01971 84.1593 1.50893 83.752 2.07969 83.752C2.60968 83.752 3.05813 84.1186 3.42505 84.8111C3.71043 85.3813 3.8735 86.0738 3.91427 86.8885H4.5258V88.1513ZM2.77275 86.8885C2.73198 86.5626 2.65045 86.2368 2.52814 85.9516C2.36507 85.5443 2.12046 85.3406 1.83508 85.3406C1.59047 85.3406 1.42739 85.4628 1.22355 85.6665C1.06048 85.8702 0.978939 86.0738 0.978939 86.3182C0.978939 86.6848 1.18278 86.8478 1.5497 86.8478H2.77275V86.8885Z" fill="#2F516B"/>
<path d="M9.296 88.1508H8.64371C8.35833 88.1508 8.15448 87.9471 7.95064 87.5805V88.1508H3.99609V86.888H6.72758C6.72758 86.114 6.60528 85.503 6.40144 85.0549L7.37988 83.9551C7.58372 84.281 7.70603 84.5661 7.78757 84.8512C7.82833 84.9734 7.8691 85.2993 7.95064 85.7881C7.99141 86.1548 8.07295 86.3992 8.11371 86.5214C8.19525 86.7658 8.39909 86.888 8.64371 86.888H9.33677V88.1508H9.296ZM7.7468 90.106L6.89066 91.0429L6.15683 90.4727L5.62683 91.0429L4.72993 90.3097L5.58607 89.3728L6.3199 89.9431L6.84989 89.3728L7.7468 90.106Z" fill="#2F516B"/>
<path d="M14.0248 88.1514H13.3725C13.0871 88.1514 12.8832 87.9477 12.6794 87.5811V88.1514H8.76562V86.8886H11.4971C11.4971 86.1147 11.3748 85.5037 11.171 85.0556L12.1494 83.9557C12.3533 84.2816 12.4756 84.5668 12.5571 84.8519C12.5979 84.9741 12.6386 85.3 12.7202 85.7888C12.7609 86.1554 12.8425 86.3998 12.8832 86.522C12.9648 86.7664 13.1686 86.8886 13.4132 86.8886H14.1063V88.1514H14.0248ZM12.4348 82.0005L11.5787 82.9374L10.8448 82.3671L10.3148 82.9374L9.41792 82.2041L10.2741 81.2672L11.0079 81.8375L11.5379 81.2672L12.4348 82.0005ZM11.5787 80.6155L10.9671 81.308L10.3148 80.7784L10.9264 80.0859L11.5787 80.6155Z" fill="#2F516B"/>
<path d="M22.9527 88.151H13.5352V86.8882H20.0581C19.6504 86.5623 19.3243 86.155 19.0797 85.7069C18.7535 85.0959 18.4681 84.7293 18.3458 84.5663C18.0197 84.1997 17.612 84.0368 17.1228 84.0368C16.9597 84.0368 16.5928 84.1183 16.1036 84.3219C16.1036 84.2812 16.5113 83.8331 17.2043 82.9369C17.3674 82.8962 17.5305 82.8555 17.6528 82.8555C18.3458 82.8555 18.9574 83.2221 19.4874 83.9146C19.895 84.5663 20.3027 85.2181 20.7104 85.8291C21.1996 86.5216 21.7704 86.8882 22.3412 86.8882H22.8711V88.151H22.9527Z" fill="#2F516B"/>
<path d="M27.723 88.1508H27.0707C26.7853 88.1508 26.5815 87.9471 26.3776 87.5805V88.1508H22.4639V86.888H25.1954C25.1954 86.114 25.0731 85.503 24.8692 85.0549L25.8477 83.9551C26.0515 84.281 26.1738 84.5661 26.2553 84.8512C26.2961 84.9734 26.3369 85.2993 26.4184 85.7881C26.4592 86.1548 26.5407 86.3992 26.5815 86.5214C26.663 86.7658 26.8669 86.888 27.1115 86.888H27.8045V88.1508H27.723ZM25.6438 90.106L24.7877 91.0429L23.8908 90.3097L24.7469 89.3728L25.6438 90.106Z" fill="#2F516B"/>
<path d="M30.9441 88.1511H27.1934V86.8884H29.7618V85.7478C29.7618 83.9147 29.6395 82.4483 29.3541 81.267L30.5771 79.7598C30.8218 81.1855 30.9441 83.1815 30.9441 85.7478V88.1511Z" fill="#2F516B"/>
<path d="M34.4496 85.5849C34.4496 86.481 34.368 87.1328 34.205 87.6216C34.0419 88.1104 33.7158 88.6807 33.1858 89.3732C33.2673 88.9251 33.3081 87.8253 33.3081 86.1144C33.3081 84.1184 33.1042 82.4483 32.7373 81.0633L33.7158 79.7598C34.205 81.6336 34.4496 83.5888 34.4496 85.5849Z" fill="#2F516B"/>
<path d="M45.0494 87.8257C45.0494 88.0701 44.9678 88.1923 44.8048 88.1923C44.764 88.1923 44.6417 88.1516 44.4379 88.1108C42.9702 87.7849 41.9102 87.622 41.2171 87.622C40.6872 87.622 40.4425 87.9071 40.4425 88.4774C40.4425 88.9663 40.4833 89.5365 40.5649 90.229C40.6464 90.9215 40.6872 91.4103 40.6872 91.777C40.6872 92.5509 40.4425 93.2841 39.9941 93.8544C39.831 92.9583 39.7087 92.0621 39.5864 91.2067C39.4233 90.1068 39.3418 89.2107 39.3418 88.5589C39.3418 88.0701 39.4233 87.6627 39.5864 87.3776C39.7495 87.0925 40.0756 86.848 40.4833 86.6036C41.1356 84.8113 41.7471 83.6707 42.3587 83.2226C42.6033 83.019 42.8887 82.9375 43.2148 82.9375C43.9486 82.9375 44.4786 83.4671 44.764 84.5262C44.9271 85.1372 45.0494 85.8704 45.0494 86.7258V87.8257ZM43.7856 86.6444C43.704 85.1372 43.3779 84.404 42.8479 84.404C42.5625 84.404 42.2771 84.6891 41.9917 85.2186C41.9102 85.3816 41.7064 85.7482 41.4618 86.3592C42.0325 86.3592 42.8479 86.4814 43.7856 86.6444Z" fill="#2F516B"/>
<path d="M51.4098 88.1513H50.839C50.7167 89.7807 49.8198 91.2064 48.189 92.4285L45.8652 91.8582C46.8844 91.6545 47.7406 91.2472 48.4744 90.6361C49.3306 89.9436 49.779 89.0882 49.8605 88.1513H48.1483C47.3329 88.1513 46.966 87.7847 46.966 87.0515C46.966 86.3997 47.1291 85.7072 47.496 85.0147C47.9037 84.1593 48.3929 83.752 48.9636 83.752C49.4936 83.752 49.9421 84.1186 50.2682 84.8111C50.5128 85.3406 50.7167 86.0331 50.7982 86.8885H51.369V88.1513H51.4098ZM49.6975 86.8885C49.4936 85.8702 49.2083 85.3406 48.7598 85.3406C48.5152 85.3406 48.3521 85.4628 48.1483 85.6665C47.9852 85.8702 47.9037 86.0738 47.9037 86.3182C47.9037 86.6849 48.1075 86.8478 48.4744 86.8478H49.6975V86.8885Z" fill="#2F516B"/>
<path d="M56.016 88.1511H55.486C55.1598 88.1511 54.8745 87.9475 54.6706 87.5809V88.1511H50.9199V86.8884H53.4883V85.7478C53.4883 83.9147 53.366 82.4483 53.0807 81.267L54.3037 79.7598C54.5483 81.1855 54.6706 83.1815 54.6706 85.7478C54.6706 86.1551 54.7114 86.4403 54.7522 86.5625C54.8337 86.7662 55.0375 86.8884 55.3637 86.8884H56.0568V88.1511H56.016Z" fill="#2F516B"/>
<path d="M62.8249 88.1511H61.1942C60.7457 88.1511 60.4603 88.0289 60.338 87.8253C60.2157 88.0697 59.8896 88.1511 59.3596 88.1511H55.5273V86.8884H59.8896C59.808 86.2773 59.5634 85.8293 59.2373 85.5441C58.9111 85.259 58.4627 85.0553 57.8511 84.9331L59.1557 83.0593C59.3596 83.0186 59.5634 83.0186 59.6857 83.0186C61.4388 83.0186 62.2949 83.5074 62.2949 84.5257C62.2949 85.0553 61.8465 85.87 60.9496 86.9291H62.7434V88.1511H62.8249ZM61.1942 84.8109C61.1942 84.4443 60.7865 84.2406 59.9711 84.1591L59.7673 84.485C60.2973 84.7294 60.6234 85.1368 60.7049 85.7478C61.0311 85.2997 61.1942 84.9738 61.1942 84.8109Z" fill="#2F516B"/>
<path d="M67.4318 88.1511H66.861C66.5348 88.1511 66.2495 87.9475 66.0456 87.5809V88.1511H62.2949V86.8884H64.8633V85.7478C64.8633 83.9147 64.741 82.4483 64.4557 81.267L65.6787 79.7598C65.9233 81.1855 66.0456 83.1815 66.0456 85.7478C66.0456 86.1551 66.0864 86.4403 66.1272 86.5625C66.2087 86.7662 66.4125 86.8884 66.7387 86.8884H67.4318V88.1511Z" fill="#2F516B"/>
<path d="M70.6931 88.1511H66.9424V86.8884H69.5108V85.7478C69.5108 83.9147 69.3885 82.4483 69.1031 81.267L70.3262 79.7598C70.5708 81.1855 70.6931 83.1815 70.6931 85.7478V88.1511Z" fill="#2F516B"/>
<path d="M82.2715 84.1181C82.2715 84.4033 82.1492 84.6477 81.9453 84.8921C81.823 84.6884 81.5784 84.5662 81.2523 84.5662C80.8446 84.5662 80.3961 84.7699 79.9477 85.1365C79.4585 85.5438 79.2139 85.9512 79.2139 86.3178C79.2139 86.6844 79.5808 86.8881 80.3146 86.8881H81.66C82.0269 86.8881 82.19 87.051 82.19 87.3769C82.19 87.7028 82.0677 88.1101 81.823 88.599C81.0484 90.2284 79.8254 91.0431 78.1131 91.0431C77.3385 91.0431 76.727 90.7986 76.3193 90.3506C75.8708 89.9025 75.667 89.2915 75.667 88.5175C75.667 87.9065 75.8301 87.2547 76.197 86.603C76.3193 86.3585 76.4416 86.2363 76.5231 86.2363C76.6047 86.2363 76.6047 86.2771 76.6047 86.3993C76.6047 86.44 76.5231 86.6437 76.4008 87.051C76.2785 87.4584 76.197 87.7435 76.197 87.9879C76.197 88.5582 76.3601 88.9656 76.6862 89.2507C77.0124 89.5359 77.4608 89.6988 78.0316 89.6988C78.7654 89.6988 79.3362 89.6173 79.7438 89.4137C80.2331 89.1692 80.6815 88.7619 81.0077 88.1101H80.1108C78.8877 88.1101 78.2354 87.7435 78.2354 87.051C78.2354 86.3585 78.6023 85.5438 79.3362 84.6477C80.1108 83.7108 80.8446 83.2627 81.4969 83.2627C82.0269 83.3034 82.2715 83.5886 82.2715 84.1181ZM79.9885 92.7947L79.1323 93.7316L78.3985 93.1613L77.8685 93.7316L76.9716 92.9983L77.8277 92.0614L78.5616 92.6317L79.0915 92.0614L79.9885 92.7947Z" fill="#2F516B"/>
<path d="M89.5685 88.1515H85.2878C84.9209 88.1515 84.717 88.0701 84.5947 87.9479C84.4724 87.8257 84.4316 87.5405 84.4316 87.1739C84.4316 86.5221 84.5132 86.1963 84.717 86.1963C84.7986 86.1963 84.8393 86.3185 84.9209 86.5221C85.0024 86.7666 85.1655 86.848 85.4101 86.848H88.4677C88.4677 86.3185 88.3454 85.7074 88.1416 85.0964C87.9377 84.4447 87.6524 83.9151 87.3262 83.5485L88.3454 82.3672C88.8346 82.9782 89.2016 83.6707 89.3646 84.4854C89.4869 85.0964 89.5685 85.8704 89.5685 86.8073V88.1515Z" fill="#2F516B"/>
<path d="M95.8883 88.1513H95.3175C95.1952 89.7807 94.2983 91.2064 92.6675 92.4285L90.3438 91.8582C91.363 91.6545 92.2191 91.2472 92.9529 90.6361C93.8091 89.9436 94.2575 89.0882 94.3391 88.1513H92.6268C91.8114 88.1513 91.4445 87.7847 91.4445 87.0515C91.4445 86.3997 91.6076 85.7072 91.9745 85.0147C92.3822 84.1593 92.8714 83.752 93.4422 83.752C93.9721 83.752 94.4206 84.1186 94.7467 84.8111C94.9914 85.3406 95.1544 86.0331 95.2767 86.8885H95.8475V88.1513H95.8883ZM94.2168 86.8885C94.0129 85.8702 93.7275 85.3406 93.2791 85.3406C93.0345 85.3406 92.8714 85.4628 92.6675 85.6665C92.5045 85.8702 92.4229 86.0738 92.4229 86.3182C92.4229 86.6849 92.6268 86.8478 92.9937 86.8478H94.2168V86.8885Z" fill="#2F516B"/>
<path d="M102.655 88.1511H101.024C100.576 88.1511 100.29 88.0289 100.168 87.8253C100.046 88.0697 99.7196 88.1511 99.1897 88.1511H95.3574V86.8884H99.7196C99.6381 86.2773 99.3935 85.8293 99.0673 85.5441C98.7412 85.259 98.2928 85.0553 97.6812 84.9331L98.9858 83.0593C99.1897 83.0186 99.3935 83.0186 99.5158 83.0186C101.269 83.0186 102.125 83.5074 102.125 84.5257C102.125 85.0553 101.677 85.87 100.78 86.9291H102.573V88.1511H102.655ZM101.065 84.8109C101.065 84.4443 100.657 84.2406 99.842 84.1591L99.6381 84.485C100.168 84.7294 100.494 85.1368 100.576 85.7478C100.902 85.2997 101.065 84.9738 101.065 84.8109Z" fill="#2F516B"/>
<path d="M112.888 88.1508H112.236C111.95 88.1508 111.747 87.9471 111.543 87.5805V88.1508H108.852C108.363 88.1508 108.077 87.9471 107.955 87.5397C107.833 87.9471 107.425 88.1508 106.773 88.1508H106.447C105.957 88.1508 105.672 87.9471 105.55 87.5397C105.468 87.9471 105.142 88.1508 104.653 88.1508H102.166V86.888H104.734C105.02 86.888 105.224 86.7658 105.387 86.5214C105.427 86.4399 105.509 86.1955 105.631 85.8289C105.713 85.5845 105.794 85.4623 105.876 85.4623C105.957 85.4623 105.998 85.503 105.998 85.6252C105.998 85.7067 105.998 85.7881 105.957 85.9511C105.917 86.0733 105.917 86.1955 105.917 86.277C105.917 86.6843 106.243 86.888 106.936 86.888H107.181C107.425 86.888 107.629 86.7658 107.751 86.5214C107.792 86.4399 107.914 86.1955 107.996 85.8289C108.077 85.5845 108.159 85.4623 108.241 85.4623C108.322 85.4623 108.363 85.503 108.363 85.6252C108.363 85.7067 108.363 85.7881 108.322 85.9511C108.281 86.0733 108.281 86.1955 108.281 86.277C108.281 86.5214 108.404 86.725 108.689 86.8065C108.893 86.888 109.178 86.888 109.627 86.888H110.32C110.32 86.114 110.197 85.4623 109.994 85.0549L110.972 83.9551C111.176 84.281 111.298 84.5661 111.38 84.8512C111.42 84.9734 111.461 85.2993 111.543 85.7881C111.584 86.1548 111.665 86.3992 111.706 86.5214C111.787 86.7658 111.991 86.888 112.236 86.888H112.929V88.1508H112.888Z" fill="#2F516B"/>
<path d="M116.149 88.1511H112.398V86.8884H114.967V85.7478C114.967 83.9147 114.845 82.4483 114.559 81.267L115.782 79.7598C116.027 81.1855 116.149 83.1815 116.149 85.7478V88.1511Z" fill="#2F516B"/>
<path d="M119.656 85.5849C119.656 86.481 119.574 87.1328 119.411 87.6216C119.248 88.1104 118.922 88.6807 118.392 89.3732C118.473 88.9251 118.514 87.8253 118.514 86.1144C118.514 84.1184 118.31 82.4483 117.943 81.0633L118.922 79.7598C119.411 81.6336 119.656 83.5888 119.656 85.5849Z" fill="#2F516B"/>
<path d="M130.99 88.1515H130.338C130.094 88.1515 129.849 87.9479 129.604 87.5812V88.1515H125.446C125.079 88.1515 124.834 88.0701 124.753 87.9479C124.631 87.8257 124.59 87.5405 124.59 87.1739C124.59 86.5221 124.671 86.1963 124.875 86.1963C124.957 86.1963 124.998 86.3185 125.079 86.5221C125.161 86.7666 125.324 86.848 125.568 86.848H128.504C128.504 86.3185 128.381 85.7074 128.177 85.0964C127.974 84.4447 127.688 83.9151 127.362 83.5485L128.381 82.3672C129.034 83.1411 129.441 84.2003 129.564 85.5038C129.645 86.3999 129.931 86.848 130.338 86.848H131.031V88.1515H130.99Z" fill="#2F516B"/>
<path d="M138.613 88.151H138.042C137.797 88.151 137.593 88.0695 137.43 87.8658C137.43 88.0288 137.43 88.1917 137.43 88.4361C137.023 88.5176 136.574 88.5583 136.167 88.5583C135.147 88.5583 134.332 88.3547 133.598 87.9066C133.272 88.1102 132.946 88.1917 132.579 88.1917H130.459V86.9289H132.824V86.7253C132.783 85.7884 133.354 84.8922 134.536 84.0368C134.454 83.9553 134.454 83.9146 134.454 83.8738C134.454 83.8331 134.78 83.385 135.392 82.5703C136.207 83.2628 136.737 84.159 137.063 85.2588C137.145 85.6254 137.227 86.0328 137.308 86.3994C137.43 86.766 137.634 86.9289 137.92 86.9289H138.613V88.151ZM135.025 85.544C135.025 85.2995 134.903 85.2181 134.699 85.2181C134.21 85.2181 133.802 85.5847 133.476 86.2772L134.047 86.6845C134.291 86.5623 134.495 86.4401 134.699 86.2364C134.903 85.992 135.025 85.7476 135.025 85.544ZM136.167 87.2956C136.085 86.4401 135.881 85.7884 135.596 85.2995C135.474 86.1142 135.188 86.6845 134.699 87.0104C135.107 87.1733 135.555 87.2548 136.167 87.2956Z" fill="#2F516B"/>
<path d="M145.382 88.1511H143.751C143.302 88.1511 143.017 88.0289 142.895 87.8253C142.772 88.0697 142.446 88.1511 141.916 88.1511H138.084V86.8884H142.446C142.365 86.2773 142.12 85.8293 141.794 85.5441C141.468 85.259 141.019 85.0553 140.408 84.9331L141.712 83.0593C141.916 83.0186 142.12 83.0186 142.242 83.0186C143.995 83.0186 144.852 83.5074 144.852 84.5257C144.852 85.0553 144.403 85.87 143.506 86.9291H145.3V88.1511H145.382ZM143.751 84.8109C143.751 84.4443 143.343 84.2406 142.528 84.1591L142.324 84.485C142.854 84.7294 143.18 85.1368 143.262 85.7478C143.588 85.2997 143.751 84.9738 143.751 84.8109Z" fill="#2F516B"/>
<path d="M156.226 88.1511H152.476C152.149 88.1511 151.864 87.9882 151.66 87.6216C151.619 87.9882 151.416 88.1511 151.089 88.1511C150.559 88.1511 149.948 88.1104 149.255 87.9882C148.317 87.8253 147.787 87.6216 147.787 87.3772C147.624 87.7031 147.461 87.9475 147.298 88.0289C147.135 88.1104 146.849 88.1919 146.483 88.1919H144.893V86.9291H145.993C146.483 86.9291 146.809 86.8476 146.972 86.7254C147.094 86.6032 147.257 86.3181 147.461 85.8293C148.195 83.9147 149.01 82.9371 149.866 82.9371C150.845 82.9371 151.456 83.9555 151.66 85.9515C151.742 86.5625 152.027 86.8884 152.516 86.8884H155.085V85.7478C155.085 83.9147 154.962 82.4483 154.677 81.267L155.9 79.7598C156.145 81.1855 156.267 83.1815 156.267 85.7478V88.1511H156.226ZM150.356 86.8069C150.274 85.259 149.989 84.4443 149.418 84.4443C149.133 84.4443 148.847 84.6887 148.562 85.2182C148.48 85.3404 148.317 85.707 148.032 86.3588C148.888 86.6439 149.663 86.8069 150.356 86.8069Z" fill="#2F516B"/>
<path d="M159.691 85.5849C159.691 86.481 159.609 87.1328 159.446 87.6216C159.283 88.1104 158.957 88.6807 158.427 89.3732C158.509 88.9251 158.549 87.8253 158.549 86.1144C158.549 84.1184 158.345 82.4483 157.979 81.0633L158.957 79.7598C159.487 81.6336 159.691 83.5888 159.691 85.5849Z" fill="#2F516B"/>
<path d="M0.163086 99.7192H0.570771L0.774614 100.819C0.856151 100.9 0.937688 101.023 1.10076 101.104C1.22307 101.186 1.38614 101.267 1.54922 101.349C1.71229 101.43 1.87536 101.471 2.07921 101.512C2.28305 101.552 2.44612 101.552 2.6092 101.552C2.89458 101.552 3.17996 101.512 3.3838 101.43C3.58764 101.349 3.79148 101.226 3.95456 101.104C4.11763 100.941 4.19917 100.778 4.28071 100.575C4.36224 100.371 4.40301 100.167 4.40301 99.9229C4.40301 99.6377 4.36224 99.3933 4.23994 99.1896C4.11763 98.986 3.95456 98.823 3.75072 98.7008C3.54687 98.5786 3.34303 98.4564 3.05765 98.3749C2.81304 98.2935 2.52766 98.212 2.28305 98.0898C1.99767 98.0083 1.75306 97.8861 1.50845 97.7639C1.26384 97.6417 1.01922 97.5195 0.815382 97.3566C0.61154 97.1936 0.448466 96.9899 0.32616 96.7048C0.203854 96.4604 0.163086 96.1345 0.163086 95.7679C0.163086 95.442 0.203854 95.1569 0.32616 94.9125C0.448466 94.6681 0.61154 94.4237 0.856151 94.2607C1.10076 94.0978 1.38614 93.9348 1.71229 93.8534C2.03844 93.7719 2.44612 93.6904 2.85381 93.6904C3.26149 93.6904 3.62841 93.7312 3.99533 93.7719C4.36224 93.8126 4.68839 93.8941 4.97377 93.9348V95.605H4.56609L4.36224 94.6273C4.19917 94.5051 3.95456 94.3829 3.70995 94.3015C3.46534 94.22 3.17996 94.1792 2.85381 94.1792C2.56843 94.1792 2.28305 94.22 2.07921 94.2607C1.87536 94.3422 1.67152 94.4237 1.54922 94.5051C1.42691 94.6273 1.3046 94.7495 1.22307 94.9125C1.14153 95.0754 1.14153 95.2384 1.14153 95.4013C1.14153 95.6457 1.22307 95.8901 1.34537 96.053C1.46768 96.216 1.63075 96.3789 1.83459 96.5011C2.03844 96.6233 2.24228 96.7455 2.52766 96.827C2.77227 96.9085 3.05765 96.9899 3.30226 97.1122C3.58764 97.1936 3.83225 97.3158 4.07686 97.438C4.32147 97.5602 4.56609 97.7232 4.76993 97.8861C4.97377 98.0491 5.13684 98.2935 5.25915 98.5379C5.38146 98.7823 5.42222 99.1082 5.42222 99.5155C5.42222 99.8821 5.38146 100.208 5.25915 100.534C5.13684 100.819 4.97377 101.104 4.72916 101.308C4.48455 101.512 4.19917 101.674 3.87302 101.797C3.5061 101.919 3.13919 101.96 2.64997 101.96C2.40535 101.96 2.16074 101.96 1.91613 101.919C1.67152 101.878 1.46768 101.878 1.22307 101.837C1.01922 101.797 0.815382 101.756 0.652308 101.715C0.489234 101.674 0.32616 101.593 0.203854 101.552V99.7192H0.163086Z" fill="#2F516B"/>
<path d="M8.96882 96.1348C9.21343 96.1348 9.45804 96.1755 9.70265 96.2162C9.9065 96.257 10.1103 96.3384 10.2734 96.4606C10.4365 96.5828 10.5588 96.7458 10.6403 96.9495C10.7219 97.1531 10.7626 97.3975 10.7626 97.6827V101.512L11.4557 101.675V101.96H9.9065L9.78419 101.39C9.74342 101.43 9.66188 101.512 9.53958 101.593C9.41727 101.675 9.29497 101.756 9.17266 101.838C9.00959 101.919 8.84651 101.96 8.68344 102.001C8.4796 102.041 8.27575 102.082 8.03114 102.082C7.74576 102.082 7.54192 102.041 7.33808 101.96C7.13424 101.878 7.01193 101.756 6.88962 101.593C6.76732 101.43 6.68578 101.267 6.64501 101.064C6.60425 100.86 6.56348 100.616 6.56348 100.412C6.56348 100.168 6.60425 99.9638 6.64501 99.7602C6.68578 99.5972 6.80809 99.4343 6.88962 99.3121C7.01193 99.1899 7.13424 99.0677 7.25654 99.0269C7.41962 98.9455 7.54192 98.9047 7.74576 98.864C7.90884 98.8233 8.11268 98.7825 8.27575 98.7825C8.4796 98.7825 8.64267 98.7418 8.84651 98.7418L9.70265 98.7011V97.8049C9.70265 97.642 9.70265 97.479 9.66188 97.3568C9.62112 97.2346 9.58035 97.1124 9.53958 96.9902C9.45804 96.9087 9.3765 96.8273 9.2542 96.7458C9.13189 96.7051 9.00959 96.6643 8.84651 96.6643C8.64267 96.6643 8.4796 96.7051 8.27575 96.7458C8.07191 96.7865 7.90884 96.868 7.74576 96.9495L7.54192 97.642H7.21577V96.4199C7.46038 96.3792 7.74576 96.2977 8.03114 96.257C8.35729 96.1348 8.64267 96.1348 8.96882 96.1348ZM9.74342 99.0269L8.96882 99.0677C8.72421 99.0677 8.52037 99.1084 8.35729 99.1491C8.19422 99.1899 8.03114 99.2713 7.94961 99.3528C7.8273 99.4343 7.74576 99.5565 7.70499 99.7194C7.66423 99.8824 7.62346 100.086 7.62346 100.33C7.62346 101.023 7.90884 101.39 8.4796 101.39C8.76498 101.39 8.96882 101.349 9.17266 101.308C9.3765 101.227 9.58035 101.186 9.78419 101.064V99.0269H9.74342Z" fill="#2F516B"/>
<path d="M13.4948 100.289C13.4948 100.615 13.5763 100.859 13.7394 101.063C13.9024 101.226 14.147 101.348 14.4732 101.348C14.677 101.348 14.9216 101.348 15.1663 101.307C15.4109 101.267 15.6555 101.226 15.8593 101.185V96.745L15.0032 96.582V96.2969H16.8378V101.511L17.5716 101.674V101.959H15.9409L15.9001 101.511C15.7778 101.592 15.6555 101.633 15.4924 101.715C15.3293 101.796 15.1663 101.837 15.0032 101.918C14.8401 101.959 14.6363 102.04 14.4732 102.04C14.3101 102.081 14.147 102.081 13.984 102.081C13.7801 102.081 13.5763 102.04 13.4132 102C13.2501 101.959 13.0871 101.837 12.9648 101.715C12.8425 101.592 12.7609 101.429 12.6794 101.185C12.5978 100.981 12.5571 100.737 12.5571 100.411V96.745L11.8232 96.582V96.2969H13.4948V100.289Z" fill="#2F516B"/>
<path d="M22.1374 101.471C21.9743 101.593 21.7297 101.756 21.4851 101.838C21.2405 101.96 20.9144 102 20.5474 102C18.9982 102 18.2236 101.023 18.2236 99.1083C18.2236 98.6195 18.2644 98.2121 18.3867 97.8455C18.509 97.4789 18.6313 97.153 18.8759 96.9086C19.0798 96.6642 19.3652 96.4605 19.6913 96.2976C20.0174 96.1754 20.3844 96.0939 20.8328 96.0939C21.0367 96.0939 21.2405 96.0939 21.4851 96.1346C21.7297 96.1754 21.9336 96.1754 22.1374 96.2161C22.1374 96.1754 22.1374 96.0939 22.1374 96.0124C22.1374 95.931 22.1374 95.8495 22.1374 95.7273C22.1374 95.6458 22.1374 95.5236 22.1374 95.4421C22.1374 95.3607 22.1374 95.2792 22.1374 95.1977V93.7313L21.1997 93.5683V93.2832H23.1566V101.389L23.8497 101.552V101.838H22.2597L22.1374 101.471ZM19.3244 99.1083C19.3244 99.5156 19.3652 99.8822 19.4467 100.167C19.5282 100.453 19.6098 100.697 19.7728 100.86C19.8951 101.023 20.0582 101.186 20.2621 101.226C20.4659 101.308 20.6697 101.349 20.9144 101.349C21.159 101.349 21.3628 101.308 21.6074 101.267C21.8113 101.226 22.0151 101.186 22.1374 101.104V96.6642C21.9743 96.6235 21.7705 96.6235 21.5667 96.5827C21.3628 96.5827 21.1182 96.542 20.9144 96.542C20.3844 96.542 19.9767 96.7457 19.7321 97.1937C19.4467 97.6418 19.3244 98.2936 19.3244 99.1083Z" fill="#2F516B"/>
<path d="M26.1327 101.471L27.1111 101.634V101.919H24.1758V101.634L25.1542 101.471V96.6639L24.3389 96.501V96.2159H26.1327V101.471ZM26.2142 94.4235C26.2142 94.505 26.2142 94.5865 26.1734 94.6679C26.1327 94.7494 26.0919 94.8309 26.0511 94.8716C26.0104 94.9123 25.9288 94.9938 25.8473 94.9938C25.7658 95.0345 25.6842 95.0345 25.6027 95.0345C25.5211 95.0345 25.4396 95.0345 25.3581 94.9938C25.2765 94.9531 25.195 94.9123 25.1542 94.8716C25.1135 94.8309 25.0319 94.7494 25.0319 94.6679C24.9912 94.5865 24.9912 94.505 24.9912 94.4235C24.9912 94.3421 24.9912 94.2606 25.0319 94.1791C25.0727 94.0976 25.1135 94.0162 25.1542 93.9754C25.195 93.9347 25.2765 93.8532 25.3581 93.8532C25.4396 93.8125 25.5211 93.8125 25.6027 93.8125C25.6842 93.8125 25.7658 93.8125 25.8473 93.8532C25.9288 93.894 26.0104 93.9347 26.0511 93.9754C26.0919 94.0162 26.1734 94.0976 26.1734 94.1791C26.1734 94.2198 26.2142 94.3013 26.2142 94.4235Z" fill="#2F516B"/>
<path d="M32.9818 98.3751V101.43L34.2048 101.593V101.919H30.8618V101.593L31.7995 101.43V94.3423L30.7803 94.1794V93.8535H34.2456C34.8164 93.8535 35.2648 93.8943 35.6725 94.0165C36.0394 94.0979 36.3656 94.2609 36.5694 94.4645C36.814 94.6682 36.9771 94.8719 37.0586 95.157C37.1402 95.4014 37.2217 95.7273 37.2217 96.0532C37.2217 96.3791 37.1809 96.6235 37.0994 96.8679C37.0179 97.1123 36.8956 97.316 36.7325 97.5197C36.5694 97.7233 36.4063 97.8455 36.2025 97.9677C35.9986 98.0899 35.7948 98.1714 35.591 98.2529L37.7517 101.471L38.6078 101.634V101.96H36.6917L34.4087 98.4158H32.9818V98.3751ZM35.9986 96.0939C35.9986 95.7681 35.9579 95.5236 35.8763 95.2792C35.7948 95.0756 35.6725 94.8719 35.5094 94.7497C35.3463 94.6275 35.1425 94.5053 34.8979 94.4645C34.6533 94.4238 34.3271 94.3831 33.9602 94.3831H32.941V97.8048H34.001C34.3679 97.8048 34.6941 97.7641 34.9387 97.7233C35.1833 97.6419 35.3871 97.5604 35.5502 97.3975C35.7133 97.2752 35.8356 97.0716 35.8763 96.8679C35.9986 96.6642 35.9986 96.3791 35.9986 96.0939Z" fill="#2F516B"/>
<path d="M40.1974 99.0674V99.1896C40.1974 99.4747 40.2382 99.7599 40.279 100.045C40.3197 100.33 40.4013 100.534 40.5236 100.738C40.6459 100.941 40.809 101.104 41.0536 101.226C41.2982 101.349 41.5836 101.389 41.9505 101.389C42.0728 101.389 42.1951 101.389 42.3174 101.389C42.4397 101.389 42.562 101.349 42.7251 101.349C42.8474 101.349 42.9697 101.308 43.092 101.308C43.2143 101.308 43.3366 101.267 43.4181 101.226V101.552C43.3366 101.593 43.2143 101.674 43.092 101.715C42.9697 101.756 42.8066 101.837 42.6435 101.878C42.4805 101.919 42.3174 101.96 42.1543 102C41.9912 102.041 41.7874 102.041 41.6243 102.041C41.1759 102.041 40.7682 101.96 40.442 101.837C40.1159 101.715 39.8713 101.511 39.6674 101.267C39.4636 101.023 39.3413 100.697 39.219 100.33C39.1374 99.9636 39.0967 99.5155 39.0967 99.0267C39.0967 98.049 39.3005 97.3158 39.7082 96.827C40.1159 96.3382 40.7274 96.0938 41.4613 96.0938C41.7466 96.0938 42.032 96.1345 42.3174 96.216C42.562 96.2974 42.8066 96.4196 43.0105 96.6233C43.2143 96.827 43.3774 97.0714 43.4589 97.3973C43.5812 97.7231 43.622 98.0898 43.622 98.5786V99.0674H40.1974ZM41.502 96.5826C41.2982 96.5826 41.0943 96.6233 40.9313 96.7048C40.7682 96.7862 40.6459 96.9492 40.5236 97.1121C40.4013 97.2751 40.3197 97.4787 40.279 97.7231C40.2382 97.9676 40.1974 98.2527 40.1974 98.5378H42.6028C42.6028 98.2527 42.6028 97.9676 42.562 97.7231C42.5212 97.4787 42.4805 97.2751 42.3989 97.1121C42.3174 96.9492 42.1951 96.7862 42.0728 96.7048C41.9097 96.6233 41.7059 96.5826 41.502 96.5826Z" fill="#2F516B"/>
<path d="M48.4328 100.289C48.4328 100.534 48.3921 100.778 48.3105 100.982C48.229 101.186 48.1067 101.389 47.9436 101.511C47.7805 101.674 47.5767 101.797 47.2913 101.878C47.0059 101.96 46.7205 102 46.3129 102C46.109 102 45.9459 102 45.7421 101.96C45.579 101.919 45.3752 101.919 45.2529 101.878C45.0898 101.837 44.9675 101.837 44.8452 101.797C44.7229 101.756 44.6414 101.756 44.6006 101.715V100.33H44.886L45.1713 101.104C45.2936 101.226 45.4567 101.308 45.6606 101.389C45.8644 101.471 46.0682 101.511 46.3536 101.511C46.7205 101.511 47.0059 101.43 47.2098 101.267C47.4136 101.104 47.4951 100.86 47.4951 100.534C47.4951 100.33 47.4544 100.167 47.3728 100.045C47.2913 99.9228 47.169 99.8006 47.0467 99.7192C46.9244 99.6377 46.7613 99.5562 46.5982 99.5155C46.4352 99.4748 46.2313 99.3933 46.0683 99.3525C45.9052 99.3118 45.7013 99.2303 45.5383 99.1489C45.3752 99.0674 45.2121 98.9859 45.0898 98.8637C44.9675 98.7415 44.8452 98.5786 44.7637 98.4156C44.6821 98.2527 44.6414 98.0083 44.6414 97.7231C44.6414 97.4787 44.6821 97.2343 44.7637 97.0307C44.8452 96.827 44.9675 96.664 45.1713 96.5418C45.3344 96.4196 45.5383 96.2974 45.7829 96.216C46.0275 96.1345 46.2721 96.0938 46.5575 96.0938C46.8428 96.0938 47.0875 96.0938 47.3728 96.1345C47.6175 96.1752 47.9028 96.216 48.1067 96.2567V97.4787H47.7398L47.4951 96.827C47.3728 96.7455 47.2505 96.664 47.0875 96.6233C46.9244 96.5826 46.7205 96.5418 46.5167 96.5418C46.1906 96.5418 45.9459 96.6233 45.7829 96.7862C45.6198 96.9492 45.5383 97.1529 45.5383 97.438C45.5383 97.6417 45.579 97.7639 45.6606 97.8861C45.7421 98.0083 45.8644 98.0898 45.9867 98.1712C46.109 98.2527 46.2721 98.3342 46.4759 98.3749C46.639 98.4156 46.8428 98.4971 47.0059 98.5786C47.2098 98.6601 47.3728 98.7008 47.5359 98.7823C47.699 98.8637 47.8621 98.9859 48.0251 99.1081C48.1474 99.2303 48.2697 99.3933 48.3513 99.5562C48.3921 99.8006 48.4328 100.045 48.4328 100.289Z" fill="#2F516B"/>
<path d="M50.4308 99.0674V99.1896C50.4308 99.4747 50.4716 99.7599 50.5124 100.045C50.5531 100.33 50.6347 100.534 50.757 100.738C50.8793 100.941 51.0424 101.104 51.287 101.226C51.5316 101.349 51.817 101.389 52.1839 101.389C52.3062 101.389 52.4285 101.389 52.5508 101.389C52.6731 101.389 52.7954 101.349 52.9585 101.349C53.0808 101.349 53.2031 101.308 53.3254 101.308C53.4477 101.308 53.57 101.267 53.6515 101.226V101.552C53.57 101.593 53.4477 101.674 53.3254 101.715C53.2031 101.756 53.04 101.837 52.8769 101.878C52.7139 101.919 52.5508 101.96 52.3877 102C52.2246 102.041 52.0208 102.041 51.8577 102.041C51.4093 102.041 51.0016 101.96 50.6754 101.837C50.3493 101.715 50.1047 101.511 49.9008 101.267C49.697 101.023 49.5747 100.697 49.4524 100.33C49.3708 99.9636 49.3301 99.5155 49.3301 99.0267C49.3301 98.049 49.5339 97.3158 49.9416 96.827C50.3493 96.3382 50.9608 96.0938 51.6947 96.0938C51.98 96.0938 52.2654 96.1345 52.5508 96.216C52.7954 96.2974 53.04 96.4196 53.2439 96.6233C53.4477 96.827 53.6108 97.0714 53.6923 97.3973C53.8146 97.7231 53.8554 98.0898 53.8554 98.5786V99.0674H50.4308ZM51.7354 96.5826C51.5316 96.5826 51.3277 96.6233 51.1647 96.7048C51.0016 96.7862 50.8793 96.9492 50.757 97.1121C50.6347 97.2751 50.5531 97.4787 50.5124 97.7231C50.4716 97.9676 50.4308 98.2527 50.4308 98.5378H52.8362C52.8362 98.2527 52.8362 97.9676 52.7954 97.7231C52.7546 97.4787 52.7139 97.2751 52.6323 97.1121C52.5508 96.9492 52.4285 96.7862 52.3062 96.7048C52.1431 96.6233 51.98 96.5826 51.7354 96.5826Z" fill="#2F516B"/>
<path d="M57.1163 96.1348C57.3609 96.1348 57.6055 96.1755 57.8501 96.2162C58.054 96.257 58.2578 96.3384 58.4209 96.4606C58.5839 96.5828 58.7063 96.7458 58.7878 96.9495C58.8693 97.1531 58.9101 97.3975 58.9101 97.6827V101.512L59.6032 101.675V101.96H58.054L57.9316 101.39C57.8909 101.43 57.8093 101.512 57.687 101.593C57.5647 101.675 57.4424 101.756 57.3201 101.838C57.157 101.919 56.994 101.96 56.8309 102.001C56.6271 102.041 56.4232 102.082 56.1786 102.082C55.8932 102.082 55.6894 102.041 55.4855 101.96C55.2817 101.878 55.1594 101.756 55.0371 101.593C54.9148 101.43 54.8332 101.267 54.7925 101.064C54.7517 100.86 54.7109 100.616 54.7109 100.412C54.7109 100.168 54.7517 99.9638 54.7925 99.7602C54.8332 99.5972 54.9555 99.4343 55.0371 99.3121C55.1594 99.1899 55.2817 99.0677 55.404 99.0269C55.5671 98.9455 55.6894 98.9047 55.8932 98.864C56.0563 98.8233 56.2601 98.7825 56.4232 98.7825C56.6271 98.7825 56.7901 98.7418 56.994 98.7418L57.8501 98.7011V97.8049C57.8501 97.642 57.8501 97.479 57.8093 97.3568C57.7686 97.2346 57.7278 97.1124 57.687 96.9902C57.6055 96.9087 57.524 96.8273 57.4017 96.7458C57.2794 96.7051 57.157 96.6643 56.994 96.6643C56.7901 96.6643 56.6271 96.7051 56.4232 96.7458C56.2194 96.7865 56.0563 96.868 55.8932 96.9495L55.6894 97.642H55.3632V96.4199C55.6078 96.3792 55.8932 96.2977 56.1786 96.257C56.5047 96.1348 56.7901 96.1348 57.1163 96.1348ZM57.9316 99.0269L57.157 99.0677C56.9124 99.0677 56.7086 99.1084 56.5455 99.1491C56.3824 99.1899 56.2194 99.2713 56.1378 99.3528C56.0155 99.4343 55.934 99.5565 55.8932 99.7194C55.8525 99.8824 55.8117 100.086 55.8117 100.33C55.8117 101.023 56.0971 101.39 56.6678 101.39C56.9532 101.39 57.157 101.349 57.3609 101.308C57.5647 101.227 57.7686 101.186 57.9724 101.064V99.0269H57.9316Z" fill="#2F516B"/>
<path d="M63.8025 96.0938V97.6009H63.5578L63.1909 96.9492C63.0686 96.9492 62.9463 96.9492 62.824 96.9899C62.7017 96.9899 62.5794 97.0307 62.4571 97.0714C62.3348 97.1121 62.2125 97.1121 62.0902 97.1529C61.9679 97.1936 61.8863 97.2343 61.764 97.2751V101.471L62.7425 101.634V101.919H60.0518V101.634L60.7856 101.471V96.664L60.0518 96.5011V96.216H61.6825L61.7233 96.9084C61.8048 96.827 61.9271 96.7455 62.0902 96.664C62.2533 96.5826 62.4163 96.4604 62.6202 96.3789C62.824 96.2974 62.9871 96.216 63.1909 96.1752C63.3948 96.1345 63.5579 96.0938 63.6802 96.0938H63.8025Z" fill="#2F516B"/>
<path d="M68.9796 101.552C68.8573 101.633 68.735 101.674 68.6127 101.755C68.4497 101.796 68.3273 101.878 68.1643 101.918C68.0012 101.959 67.8381 102 67.6343 102C67.4712 102 67.2674 102.041 67.1043 102.041C66.6151 102.041 66.2074 101.959 65.8405 101.837C65.5143 101.715 65.2289 101.511 64.9843 101.267C64.7805 101.022 64.6174 100.696 64.4951 100.33C64.3728 99.9631 64.332 99.5558 64.332 99.067C64.332 98.5374 64.4136 98.1301 64.5359 97.7635C64.6582 97.3968 64.862 97.071 65.1066 96.8673C65.3512 96.6229 65.6366 96.4599 65.9628 96.3377C66.2889 96.2155 66.6558 96.1748 67.0635 96.1748C67.3897 96.1748 67.7158 96.1748 68.0012 96.2155C68.2866 96.2563 68.572 96.297 68.8166 96.3377V97.9264H68.4904L68.2458 96.9488C68.0827 96.8673 67.9197 96.7858 67.7158 96.7451C67.512 96.7044 67.2674 96.6636 67.0635 96.6636C66.8189 96.6636 66.5743 96.7044 66.3705 96.7858C66.1666 96.8673 66.0035 97.0302 65.8812 97.2339C65.7589 97.4376 65.6366 97.682 65.5551 98.0079C65.4735 98.3338 65.4328 98.7004 65.4328 99.1077C65.4328 99.4743 65.4736 99.8002 65.5143 100.085C65.5551 100.37 65.6774 100.615 65.8405 100.819C66.0035 101.022 66.2074 101.185 66.452 101.307C66.6966 101.43 67.0228 101.47 67.4304 101.47C67.5527 101.47 67.7158 101.47 67.8381 101.47C67.9604 101.47 68.1235 101.43 68.2458 101.43C68.3681 101.43 68.4904 101.389 68.6127 101.348C68.735 101.307 68.8166 101.307 68.9389 101.267V101.552H68.9796Z" fill="#2F516B"/>
<path d="M71.3043 95.8085C71.3043 95.8492 71.3043 95.9307 71.3043 96.0122C71.3043 96.0936 71.3043 96.1751 71.3043 96.2566C71.3043 96.338 71.3043 96.4195 71.3043 96.501C71.3043 96.5824 71.3043 96.6639 71.2635 96.7046C71.3858 96.6232 71.5082 96.5824 71.6712 96.501C71.8343 96.4195 71.9974 96.3788 72.1604 96.2973C72.3235 96.2566 72.5274 96.1751 72.6904 96.1344C72.8535 96.0936 73.0166 96.0936 73.1797 96.0936C73.3835 96.0936 73.5873 96.1344 73.7912 96.1751C73.9543 96.2158 74.1173 96.338 74.2396 96.4602C74.3619 96.5824 74.4843 96.7454 74.5658 96.9898C74.6473 97.1935 74.6881 97.4379 74.6881 97.7638V101.471L75.3812 101.634V101.919H72.9351V101.634L73.6689 101.471V97.8452C73.6689 97.5193 73.5873 97.2749 73.4243 97.0713C73.2612 96.9083 73.0166 96.7861 72.6904 96.7861C72.5681 96.7861 72.4458 96.7861 72.3235 96.7861C72.2012 96.7861 72.0789 96.8269 71.9566 96.8269C71.8343 96.8269 71.712 96.8676 71.5897 96.8676C71.4674 96.9083 71.3858 96.9083 71.3043 96.9083V101.389L72.0789 101.552V101.837H69.592V101.552L70.3259 101.389V93.6903L69.4697 93.5273V93.2422H71.3043V95.8085Z" fill="#2F516B"/>
<path d="M79.4177 99.7192H79.8254L80.0292 100.819C80.1108 100.9 80.1923 101.023 80.3554 101.104C80.4777 101.186 80.6408 101.267 80.8039 101.349C80.9669 101.43 81.13 101.471 81.3338 101.512C81.5377 101.552 81.7008 101.552 81.8638 101.552C82.1492 101.552 82.4346 101.512 82.6384 101.43C82.883 101.349 83.0461 101.226 83.2092 101.104C83.3723 100.941 83.4538 100.778 83.5353 100.575C83.6169 100.371 83.6576 100.167 83.6576 99.9229C83.6576 99.6377 83.6169 99.3933 83.4946 99.1896C83.3723 98.986 83.2092 98.823 83.0053 98.7008C82.8015 98.5786 82.5977 98.4564 82.3123 98.3749C82.0677 98.2935 81.7823 98.212 81.5377 98.0898C81.2523 98.0083 81.0077 97.8861 80.7631 97.7639C80.5185 97.6417 80.2739 97.5195 80.07 97.3566C79.8662 97.1936 79.7031 96.9899 79.5808 96.7048C79.4585 96.4604 79.377 96.1345 79.377 95.7679C79.377 95.442 79.4177 95.1569 79.54 94.9125C79.6623 94.6681 79.8254 94.4237 80.07 94.2607C80.3146 94.0978 80.6 93.9348 80.9262 93.8534C81.2523 93.7719 81.66 93.6904 82.0677 93.6904C82.4754 93.6904 82.8423 93.7312 83.2092 93.7719C83.5761 93.8126 83.9023 93.8941 84.1876 93.9348V95.605H83.7799L83.5761 94.6273C83.413 94.5051 83.1684 94.3829 82.9238 94.3015C82.6792 94.22 82.3938 94.1792 82.0677 94.1792C81.7823 94.1792 81.4969 94.22 81.2931 94.2607C81.0892 94.3422 80.8854 94.4237 80.7631 94.5051C80.6408 94.6273 80.5185 94.7495 80.4369 94.9125C80.3554 95.0754 80.3146 95.2384 80.3146 95.4013C80.3146 95.6457 80.3554 95.8901 80.5185 96.053C80.6408 96.216 80.8039 96.3789 81.0077 96.5011C81.2115 96.6233 81.4154 96.7455 81.7008 96.827C81.9454 96.9085 82.2307 96.9899 82.4754 97.1122C82.7607 97.1936 83.0053 97.3158 83.25 97.438C83.4946 97.5602 83.7392 97.7232 83.943 97.8861C84.1469 98.0491 84.3099 98.2935 84.4322 98.5379C84.5545 98.7823 84.6361 99.1082 84.6361 99.5155C84.6361 99.8821 84.5953 100.208 84.473 100.534C84.3507 100.819 84.1876 101.104 83.943 101.308C83.6984 101.512 83.413 101.674 83.0869 101.797C82.7607 101.919 82.353 101.96 81.8638 101.96C81.6192 101.96 81.3746 101.96 81.13 101.919C80.8854 101.878 80.6815 101.878 80.4369 101.837C80.2331 101.797 80.0292 101.756 79.8662 101.715C79.7031 101.674 79.54 101.593 79.4177 101.552V99.7192Z" fill="#2F516B"/>
<path d="M90.507 101.552C90.3847 101.633 90.2624 101.674 90.1401 101.755C89.977 101.796 89.8547 101.878 89.6916 101.918C89.5285 101.959 89.3655 102 89.1616 102C88.9986 102 88.7947 102.041 88.6316 102.041C88.1424 102.041 87.7347 101.959 87.3678 101.837C87.0417 101.715 86.7563 101.511 86.5117 101.267C86.3078 101.022 86.1448 100.696 86.0224 100.33C85.9001 99.9631 85.8594 99.5558 85.8594 99.067C85.8594 98.5374 85.9409 98.1301 86.0632 97.7635C86.1855 97.3968 86.3894 97.071 86.634 96.8673C86.8786 96.6229 87.164 96.4599 87.4901 96.3377C87.8163 96.2155 88.1832 96.1748 88.5909 96.1748C88.917 96.1748 89.2432 96.1748 89.5286 96.2155C89.8139 96.2563 90.0993 96.297 90.3439 96.3377V97.9264H90.0178L89.7732 96.9488C89.6101 96.8673 89.447 96.7858 89.2432 96.7451C89.0393 96.7044 88.7947 96.6636 88.5909 96.6636C88.3463 96.6636 88.1016 96.7044 87.8978 96.7858C87.694 96.8673 87.5309 97.0302 87.4086 97.2339C87.2863 97.4376 87.164 97.682 87.0824 98.0079C87.0009 98.3338 86.9601 98.7004 86.9601 99.1077C86.9601 99.4743 87.0009 99.8002 87.0417 100.085C87.0824 100.37 87.2047 100.615 87.3678 100.819C87.5309 101.022 87.7347 101.185 87.9793 101.307C88.224 101.43 88.5501 101.47 88.9578 101.47C89.0801 101.47 89.2432 101.47 89.3655 101.47C89.4878 101.47 89.6509 101.43 89.7732 101.43C89.8955 101.43 90.0178 101.389 90.1401 101.348C90.2624 101.307 90.3439 101.307 90.4662 101.267V101.552H90.507Z" fill="#2F516B"/>
<path d="M93.1151 101.471L94.0935 101.634V101.919H91.1582V101.634L92.1366 101.471V96.6639L91.3213 96.501V96.2159H93.1151V101.471ZM93.1558 94.4235C93.1558 94.505 93.1559 94.5865 93.1151 94.6679C93.0743 94.7494 93.0335 94.8309 92.9928 94.8716C92.952 94.9123 92.8705 94.9938 92.7889 94.9938C92.7074 95.0345 92.6259 95.0345 92.5443 95.0345C92.4628 95.0345 92.3813 95.0345 92.2997 94.9938C92.2182 94.9531 92.1366 94.9123 92.0959 94.8716C92.0551 94.8309 91.9736 94.7494 91.9736 94.6679C91.9328 94.5865 91.9328 94.505 91.9328 94.4235C91.9328 94.3421 91.9328 94.2606 91.9736 94.1791C92.0143 94.0976 92.0551 94.0162 92.0959 93.9754C92.1366 93.9347 92.2182 93.8532 92.2997 93.8532C92.3813 93.8125 92.4628 93.8125 92.5443 93.8125C92.6259 93.8125 92.7074 93.8125 92.7889 93.8532C92.8705 93.894 92.952 93.9347 92.9928 93.9754C93.0335 94.0162 93.1151 94.0976 93.1151 94.1791C93.1559 94.2198 93.1558 94.3013 93.1558 94.4235Z" fill="#2F516B"/>
<path d="M95.8468 99.0674V99.1896C95.8468 99.4747 95.8876 99.7599 95.9284 100.045C95.9691 100.33 96.0507 100.534 96.173 100.738C96.2953 100.941 96.4584 101.104 96.703 101.226C96.9476 101.349 97.233 101.389 97.5999 101.389C97.7222 101.389 97.8445 101.389 97.9668 101.389C98.0891 101.389 98.2114 101.349 98.3745 101.349C98.4968 101.349 98.6191 101.308 98.7414 101.308C98.8637 101.308 98.986 101.267 99.0676 101.226V101.552C98.986 101.593 98.8637 101.674 98.7414 101.715C98.6191 101.756 98.456 101.837 98.293 101.878C98.1299 101.919 97.9668 101.96 97.8037 102C97.6407 102.041 97.4368 102.041 97.2737 102.041C96.8253 102.041 96.4176 101.96 96.0915 101.837C95.7653 101.715 95.5207 101.511 95.3169 101.267C95.113 101.023 94.9907 100.697 94.8684 100.33C94.7869 99.9636 94.7461 99.5155 94.7461 99.0267C94.7461 98.049 94.9499 97.3158 95.3576 96.827C95.7653 96.3382 96.3768 96.0938 97.1107 96.0938C97.396 96.0938 97.6814 96.1345 97.9668 96.216C98.2114 96.2974 98.456 96.4196 98.6599 96.6233C98.8637 96.827 99.0268 97.0714 99.1083 97.3973C99.2306 97.7231 99.2714 98.0898 99.2714 98.5786V99.0674H95.8468ZM97.1514 96.5826C96.9476 96.5826 96.7437 96.6233 96.5807 96.7048C96.4176 96.7862 96.2953 96.9492 96.173 97.1121C96.0507 97.2751 95.9691 97.4787 95.9284 97.7231C95.8876 97.9676 95.8468 98.2527 95.8468 98.5378H98.2522C98.2522 98.2527 98.2522 97.9676 98.2114 97.7231C98.1706 97.4787 98.1299 97.2751 98.0483 97.1121C97.9668 96.9492 97.8445 96.7862 97.7222 96.7048C97.5591 96.6233 97.396 96.5826 97.1514 96.5826Z" fill="#2F516B"/>
<path d="M101.718 96.7048C101.841 96.6233 101.963 96.5826 102.126 96.5011C102.289 96.4196 102.452 96.3789 102.615 96.2974C102.778 96.2567 102.941 96.1752 103.105 96.1345C103.268 96.0938 103.431 96.0938 103.553 96.0938C103.757 96.0938 103.961 96.1345 104.164 96.1752C104.328 96.216 104.491 96.3382 104.613 96.4604C104.735 96.5826 104.858 96.7455 104.939 96.9899C105.021 97.1936 105.061 97.438 105.061 97.7639V101.471L105.754 101.634V101.919H103.308V101.634L104.042 101.471V97.8861C104.042 97.5602 103.961 97.2751 103.798 97.1121C103.634 96.9084 103.39 96.827 103.064 96.827C102.941 96.827 102.819 96.827 102.697 96.827C102.575 96.827 102.452 96.8677 102.33 96.8677C102.208 96.8677 102.085 96.9084 102.004 96.9084C101.881 96.9492 101.8 96.9492 101.718 96.9492V101.43L102.493 101.593V101.878H100.047V101.593L100.74 101.43V96.6233L100.047 96.4604V96.1752H101.637L101.718 96.7048Z" fill="#2F516B"/>
<path d="M111.013 101.552C110.891 101.633 110.768 101.674 110.646 101.755C110.483 101.796 110.361 101.878 110.197 101.918C110.034 101.959 109.871 102 109.667 102C109.504 102 109.301 102.041 109.138 102.041C108.648 102.041 108.241 101.959 107.874 101.837C107.507 101.715 107.262 101.511 107.018 101.267C106.814 101.022 106.651 100.696 106.528 100.33C106.406 99.9631 106.365 99.5558 106.365 99.067C106.365 98.5374 106.447 98.1301 106.569 97.7635C106.691 97.3968 106.895 97.071 107.14 96.8673C107.384 96.6229 107.67 96.4599 107.996 96.3377C108.322 96.2155 108.689 96.1748 109.097 96.1748C109.423 96.1748 109.749 96.1748 110.034 96.2155C110.32 96.2563 110.605 96.297 110.85 96.3377V97.9264H110.524L110.279 96.9488C110.116 96.8673 109.953 96.7858 109.749 96.7451C109.545 96.7044 109.301 96.6636 109.097 96.6636C108.852 96.6636 108.608 96.7044 108.404 96.7858C108.2 96.8673 108.037 97.0302 107.914 97.2339C107.792 97.4376 107.67 97.682 107.588 98.0079C107.507 98.3338 107.466 98.7004 107.466 99.1077C107.466 99.4743 107.507 99.8002 107.548 100.085C107.588 100.37 107.711 100.615 107.874 100.819C108.037 101.022 108.241 101.185 108.485 101.307C108.73 101.43 109.056 101.47 109.464 101.47C109.586 101.47 109.749 101.47 109.871 101.47C109.994 101.47 110.157 101.43 110.279 101.43C110.401 101.43 110.524 101.389 110.646 101.348C110.768 101.307 110.85 101.307 110.972 101.267V101.552H111.013Z" fill="#2F516B"/>
<path d="M112.929 99.0674V99.1896C112.929 99.4747 112.97 99.7599 113.01 100.045C113.051 100.33 113.133 100.534 113.255 100.738C113.377 100.941 113.54 101.104 113.785 101.226C114.03 101.349 114.315 101.389 114.682 101.389C114.804 101.389 114.927 101.389 115.049 101.389C115.171 101.389 115.293 101.349 115.457 101.349C115.579 101.349 115.701 101.308 115.823 101.308C115.946 101.308 116.068 101.267 116.15 101.226V101.552C116.068 101.593 115.946 101.674 115.823 101.715C115.701 101.756 115.538 101.837 115.375 101.878C115.212 101.919 115.049 101.96 114.886 102C114.723 102.041 114.519 102.041 114.356 102.041C113.907 102.041 113.5 101.96 113.173 101.837C112.847 101.715 112.603 101.511 112.399 101.267C112.195 101.023 112.073 100.697 111.95 100.33C111.869 99.9636 111.828 99.5155 111.828 99.0267C111.828 98.049 112.032 97.3158 112.44 96.827C112.847 96.3382 113.459 96.0938 114.193 96.0938C114.478 96.0938 114.763 96.1345 115.049 96.216C115.293 96.2974 115.538 96.4196 115.742 96.6233C115.946 96.827 116.109 97.0714 116.19 97.3973C116.313 97.7231 116.353 98.0898 116.353 98.5786V99.0674H112.929ZM114.233 96.5826C114.03 96.5826 113.826 96.6233 113.663 96.7048C113.5 96.7862 113.377 96.9492 113.255 97.1121C113.133 97.2751 113.051 97.4787 113.01 97.7231C112.97 97.9676 112.929 98.2527 112.929 98.5378H115.334C115.334 98.2527 115.334 97.9676 115.293 97.7231C115.253 97.4787 115.212 97.2751 115.13 97.1121C115.049 96.9492 114.927 96.7862 114.804 96.7048C114.641 96.6233 114.478 96.5826 114.233 96.5826Z" fill="#2F516B"/>
<path d="M122.549 101.389L123.568 101.552V101.878H120.348V101.552L121.367 101.389V94.3013L120.348 94.1384V93.8125H123.568V94.1384L122.549 94.3013V101.389Z" fill="#2F516B"/>
<path d="M125.933 96.7048C126.056 96.6233 126.178 96.5826 126.341 96.5011C126.504 96.4196 126.667 96.3789 126.83 96.2974C126.993 96.2567 127.156 96.1752 127.319 96.1345C127.482 96.0938 127.645 96.0938 127.768 96.0938C127.972 96.0938 128.175 96.1345 128.379 96.1752C128.542 96.216 128.705 96.3382 128.828 96.4604C128.95 96.5826 129.072 96.7455 129.154 96.9899C129.235 97.1936 129.276 97.438 129.276 97.7639V101.471L129.969 101.634V101.919H127.523V101.634L128.257 101.471V97.8861C128.257 97.5602 128.175 97.2751 128.012 97.1121C127.849 96.9084 127.605 96.827 127.279 96.827C127.156 96.827 127.034 96.827 126.912 96.827C126.789 96.827 126.667 96.8677 126.545 96.8677C126.422 96.8677 126.3 96.9084 126.219 96.9084C126.096 96.9492 126.015 96.9492 125.933 96.9492V101.43L126.708 101.593V101.878H124.262V101.593L124.955 101.43V96.6233L124.262 96.4604V96.1752H125.852L125.933 96.7048Z" fill="#2F516B"/>
<path d="M134.496 100.289C134.496 100.534 134.456 100.778 134.374 100.982C134.292 101.186 134.17 101.389 134.007 101.511C133.844 101.674 133.64 101.797 133.355 101.878C133.069 101.96 132.784 102 132.376 102C132.173 102 132.009 102 131.806 101.96C131.643 101.919 131.439 101.919 131.316 101.878C131.153 101.837 131.031 101.837 130.909 101.797C130.786 101.756 130.705 101.756 130.664 101.715V100.33H130.949L131.235 101.104C131.357 101.226 131.52 101.308 131.724 101.389C131.928 101.471 132.132 101.511 132.417 101.511C132.784 101.511 133.069 101.43 133.273 101.267C133.477 101.104 133.559 100.86 133.559 100.534C133.559 100.33 133.518 100.167 133.436 100.045C133.355 99.9228 133.232 99.8006 133.11 99.7192C132.988 99.6377 132.825 99.5562 132.662 99.5155C132.499 99.4748 132.295 99.3933 132.132 99.3525C131.969 99.3118 131.765 99.2303 131.602 99.1489C131.439 99.0674 131.276 98.9859 131.153 98.8637C131.031 98.7415 130.909 98.5786 130.827 98.4156C130.746 98.2527 130.705 98.0083 130.705 97.7231C130.705 97.4787 130.746 97.2343 130.827 97.0307C130.909 96.827 131.031 96.664 131.235 96.5418C131.398 96.4196 131.602 96.2974 131.846 96.216C132.091 96.1345 132.336 96.0938 132.621 96.0938C132.906 96.0938 133.151 96.0938 133.436 96.1345C133.681 96.1752 133.966 96.216 134.17 96.2567V97.4787H133.885L133.64 96.827C133.518 96.7455 133.396 96.664 133.232 96.6233C133.069 96.5826 132.866 96.5418 132.662 96.5418C132.336 96.5418 132.091 96.6233 131.928 96.7862C131.765 96.9492 131.683 97.1529 131.683 97.438C131.683 97.6417 131.724 97.7639 131.806 97.8861C131.887 98.0083 132.009 98.0898 132.132 98.1712C132.254 98.2527 132.417 98.3342 132.621 98.3749C132.784 98.4156 132.988 98.4971 133.151 98.5786C133.355 98.6601 133.518 98.7008 133.681 98.7823C133.844 98.8637 134.007 98.9859 134.17 99.1081C134.292 99.2303 134.415 99.3933 134.496 99.5562C134.456 99.8006 134.496 100.045 134.496 100.289Z" fill="#2F516B"/>
<path d="M136.942 102C136.575 102 136.289 101.878 136.086 101.674C135.882 101.43 135.8 101.145 135.8 100.697V96.7455H135.066V96.4603L135.8 96.2159L136.412 94.9531H136.779V96.2159H138.083V96.7047H136.779V100.534C136.779 100.778 136.819 100.982 136.942 101.104C137.064 101.226 137.227 101.308 137.39 101.308C137.553 101.308 137.676 101.308 137.839 101.267C138.002 101.267 138.124 101.226 138.246 101.186V101.593C138.206 101.634 138.124 101.674 138.002 101.715C137.92 101.756 137.798 101.797 137.676 101.837C137.553 101.878 137.431 101.878 137.309 101.919C137.227 102 137.105 102 136.942 102Z" fill="#2F516B"/>
<path d="M140.57 101.471L141.549 101.634V101.919H138.613V101.634L139.592 101.471V96.6639L138.776 96.501V96.2159H140.57V101.471ZM140.652 94.4235C140.652 94.505 140.652 94.5865 140.611 94.6679C140.57 94.7494 140.529 94.8309 140.489 94.8716C140.448 94.9123 140.366 94.9938 140.285 94.9938C140.203 95.0345 140.122 95.0345 140.04 95.0345C139.959 95.0345 139.877 95.0345 139.796 94.9938C139.714 94.9531 139.632 94.9123 139.592 94.8716C139.551 94.8309 139.469 94.7494 139.469 94.6679C139.429 94.5865 139.429 94.505 139.429 94.4235C139.429 94.3421 139.429 94.2606 139.469 94.1791C139.51 94.0976 139.551 94.0162 139.592 93.9754C139.632 93.9347 139.714 93.8532 139.796 93.8532C139.877 93.8125 139.959 93.8125 140.04 93.8125C140.122 93.8125 140.203 93.8125 140.285 93.8532C140.366 93.894 140.448 93.9347 140.489 93.9754C140.529 94.0162 140.611 94.0976 140.611 94.1791C140.611 94.2198 140.652 94.3013 140.652 94.4235Z" fill="#2F516B"/>
<path d="M143.791 102C143.424 102 143.139 101.878 142.935 101.674C142.731 101.43 142.65 101.145 142.65 100.697V96.7455H141.916V96.4603L142.65 96.2159L143.261 94.9531H143.628V96.2159H144.933V96.7047H143.628V100.534C143.628 100.778 143.669 100.982 143.791 101.104C143.914 101.226 144.077 101.308 144.24 101.308C144.403 101.308 144.525 101.308 144.688 101.267C144.851 101.267 144.974 101.226 145.096 101.186V101.593C145.055 101.634 144.974 101.674 144.851 101.715C144.77 101.756 144.648 101.797 144.525 101.837C144.403 101.878 144.281 101.878 144.158 101.919C144.077 102 143.914 102 143.791 102Z" fill="#2F516B"/>
<path d="M147.093 100.289C147.093 100.615 147.175 100.859 147.338 101.063C147.501 101.226 147.746 101.348 148.072 101.348C148.276 101.348 148.52 101.348 148.765 101.307C149.009 101.267 149.254 101.226 149.458 101.185V96.745L148.602 96.582V96.2969H150.436V101.511L151.17 101.674V101.959H149.539L149.499 101.511C149.376 101.592 149.254 101.633 149.091 101.715C148.928 101.796 148.765 101.837 148.602 101.918C148.439 101.959 148.235 102.04 148.072 102.04C147.909 102.081 147.746 102.081 147.583 102.081C147.379 102.081 147.175 102.04 147.012 102C146.849 101.959 146.686 101.837 146.563 101.715C146.441 101.592 146.319 101.429 146.278 101.185C146.196 100.981 146.156 100.737 146.156 100.411V96.745L145.422 96.582V96.2969H147.134V100.289H147.093Z" fill="#2F516B"/>
<path d="M153.371 102C153.005 102 152.719 101.878 152.515 101.674C152.311 101.43 152.23 101.145 152.23 100.697V96.7455H151.496V96.4603L152.23 96.2159L152.841 94.9531H153.208V96.2159H154.513V96.7047H153.208V100.534C153.208 100.778 153.249 100.982 153.371 101.104C153.494 101.226 153.657 101.308 153.82 101.308C153.983 101.308 154.105 101.308 154.268 101.267C154.431 101.267 154.554 101.226 154.676 101.186V101.593C154.635 101.634 154.554 101.674 154.431 101.715C154.35 101.756 154.228 101.797 154.105 101.837C153.983 101.878 153.861 101.878 153.738 101.919C153.616 102 153.494 102 153.371 102Z" fill="#2F516B"/>
<path d="M156.347 99.0674V99.1896C156.347 99.4747 156.388 99.7599 156.428 100.045C156.469 100.33 156.551 100.534 156.673 100.738C156.795 100.941 156.958 101.104 157.203 101.226C157.448 101.349 157.733 101.389 158.1 101.389C158.222 101.389 158.344 101.389 158.467 101.389C158.589 101.389 158.711 101.349 158.874 101.349C158.997 101.349 159.119 101.308 159.241 101.308C159.364 101.308 159.486 101.267 159.568 101.226V101.552C159.486 101.593 159.364 101.674 159.241 101.715C159.119 101.756 158.956 101.837 158.793 101.878C158.63 101.919 158.467 101.96 158.304 102C158.141 102.041 157.937 102.041 157.774 102.041C157.325 102.041 156.918 101.96 156.591 101.837C156.265 101.715 156.021 101.511 155.817 101.267C155.613 101.023 155.491 100.697 155.368 100.33C155.287 99.9636 155.246 99.5155 155.246 99.0267C155.246 98.049 155.45 97.3158 155.858 96.827C156.265 96.3382 156.877 96.0938 157.611 96.0938C157.896 96.0938 158.181 96.1345 158.467 96.216C158.711 96.2974 158.956 96.4196 159.16 96.6233C159.364 96.827 159.527 97.0714 159.608 97.3973C159.731 97.7231 159.771 98.0898 159.771 98.5786V99.0674H156.347ZM157.651 96.5826C157.407 96.5826 157.244 96.6233 157.081 96.7048C156.918 96.7862 156.795 96.9492 156.673 97.1121C156.551 97.2751 156.469 97.4787 156.428 97.7231C156.388 97.9676 156.347 98.2527 156.347 98.5378H158.752C158.752 98.2527 158.752 97.9676 158.711 97.7231C158.671 97.4787 158.63 97.2751 158.548 97.1121C158.467 96.9492 158.344 96.7862 158.222 96.7048C158.018 96.6233 157.855 96.5826 157.651 96.5826Z" fill="#2F516B"/>
</svg>
