<svg width="231" height="125" viewBox="0 0 231 125" fill="none" xmlns="http://www.w3.org/2000/svg">
<path d="M11.8076 108.074V100.295H12.6313V104.139L16.1092 100.295H17.116L13.5466 104.139L17.3906 107.983H16.3838L12.6313 104.139V107.983H11.8076V108.074Z" fill="#008996"/>
<path d="M24.7134 108.074H23.8896L22.9744 105.786H19.405L18.4897 108.074H17.666L20.6863 100.295H21.6015L24.7134 108.074ZM19.7711 105.054H22.6998L21.2354 101.302L19.7711 105.054Z" fill="#008996"/>
<path d="M25.7197 105.144V100.385H26.5434V104.961C26.5434 106.608 27.2756 107.524 28.9231 107.524C30.662 107.524 31.3027 106.7 31.3027 104.961V100.385H32.1264V105.144C32.1264 106.883 31.3027 108.256 28.9231 108.256C26.5434 108.256 25.7197 106.791 25.7197 105.144Z" fill="#008996"/>
<path d="M36.4282 107.433C37.618 107.433 38.4417 106.976 38.4417 105.969C38.4417 105.145 37.7095 104.688 36.7027 104.413L36.1536 104.23C34.7807 103.864 34.1401 103.132 34.1401 102.033C34.1401 100.752 35.3299 100.111 36.7027 100.111C37.618 100.111 38.6248 100.386 39.2654 100.752L38.8993 101.484C38.3502 101.118 37.5265 100.844 36.7027 100.844C35.7875 100.844 35.0553 101.21 35.0553 101.942C35.0553 102.674 35.6045 103.04 36.5197 103.406L37.1604 103.589C38.3502 103.955 39.4485 104.504 39.4485 105.877C39.4485 107.342 38.3502 108.074 36.6112 108.074C35.6045 108.074 34.5977 107.799 33.957 107.433L34.3231 106.701C34.7807 107.159 35.6045 107.433 36.4282 107.433Z" fill="#008996"/>
<path d="M42.7428 101.117H39.9971V100.385H46.3122V101.117H43.5665V108.073H42.7428V101.117Z" fill="#008996"/>
<path d="M52.811 107.433C54.0008 107.433 54.8245 106.976 54.8245 105.969C54.8245 105.145 54.0923 104.688 53.0856 104.413L52.5364 104.23C51.1636 103.864 50.5229 103.132 50.5229 102.033C50.5229 100.752 51.7127 100.111 53.0856 100.111C54.0008 100.111 55.0076 100.386 55.6482 100.752L55.2821 101.484C54.733 101.118 53.9093 100.844 53.0856 100.844C52.1703 100.844 51.4381 101.21 51.4381 101.942C51.4381 102.674 51.9873 103.04 52.9025 103.406L53.5432 103.589C54.733 103.955 55.8313 104.504 55.8313 105.877C55.8313 107.342 54.733 108.074 52.994 108.074C51.9873 108.074 50.9805 107.799 50.3398 107.433L50.7059 106.701C51.1636 107.159 51.9873 107.433 52.811 107.433Z" fill="#008996"/>
<path d="M56.7451 105.511C56.7451 104.047 57.9349 102.766 59.3993 102.766C60.9552 102.766 62.0535 103.955 62.0535 105.511C62.0535 106.976 60.8637 108.166 59.3993 108.166C57.9349 108.257 56.7451 106.976 56.7451 105.511ZM61.3213 105.511C61.3213 104.413 60.5891 103.589 59.4908 103.589C58.3925 103.589 57.6604 104.505 57.6604 105.511C57.6604 106.61 58.3925 107.433 59.4908 107.433C60.5891 107.433 61.3213 106.61 61.3213 105.511Z" fill="#008996"/>
<path d="M65.8065 102.766C66.5387 102.766 67.0879 102.949 67.637 103.223L67.2709 103.955C66.9048 103.681 66.4472 103.589 65.8065 103.589C64.7083 103.589 63.9761 104.413 63.9761 105.511C63.9761 106.61 64.7083 107.433 65.8065 107.433C66.4472 107.433 66.9048 107.25 67.2709 107.067L67.637 107.799C67.0879 108.074 66.5387 108.257 65.8065 108.257C64.3422 108.257 63.1523 107.159 63.1523 105.603C63.1523 103.955 64.3422 102.766 65.8065 102.766Z" fill="#008996"/>
<path d="M69.9245 101.209C69.9245 101.484 69.6499 101.758 69.3753 101.758C69.1007 101.758 68.8262 101.575 68.8262 101.209C68.8262 100.935 69.1007 100.66 69.3753 100.66C69.6499 100.752 69.9245 100.935 69.9245 101.209ZM68.9177 102.948H69.6499V108.165H68.9177V102.948Z" fill="#008996"/>
<path d="M71.208 106.61C71.208 105.42 72.2148 104.871 73.7707 104.871C74.0452 104.871 74.5029 104.871 74.869 104.962V104.871C74.869 103.956 74.3198 103.59 73.4046 103.59C72.8554 103.59 72.1232 103.773 71.6656 104.047L71.7571 103.224C72.3063 103.04 72.7639 102.857 73.4961 102.857C74.869 102.857 75.6011 103.407 75.6011 104.871V107.891C75.052 108.166 74.2283 108.257 73.4961 108.257C72.3978 108.257 71.208 107.8 71.208 106.61ZM74.869 105.695C74.5944 105.603 74.1368 105.603 73.7707 105.603C72.947 105.603 72.0317 105.786 72.0317 106.61C72.0317 107.342 72.7639 107.525 73.5876 107.525C74.0452 107.525 74.5029 107.434 74.869 107.251V105.695Z" fill="#008996"/>
<path d="M77.5215 108.074V100.295H78.2537V108.074H77.5215Z" fill="#008996"/>
<path d="M84.2036 104.78V108.074H83.3799V100.295H86.0341C87.9561 100.295 88.7798 101.302 88.7798 102.491C88.7798 103.315 88.4137 104.322 87.0408 104.597L89.2374 107.983H88.3222L86.2171 104.688H85.9426H84.2036V104.78ZM84.2036 101.119V104.047H85.851C87.1324 104.047 87.9561 103.681 87.9561 102.583C87.9561 101.668 87.3154 101.119 85.851 101.119H84.2036Z" fill="#008996"/>
<path d="M94.3623 106.976L94.7284 107.708C94.1793 107.982 93.5386 108.257 92.5318 108.257C90.9759 108.257 89.7861 107.067 89.7861 105.511C89.7861 103.955 90.9759 102.766 92.4403 102.766C93.9047 102.766 95.003 103.864 95.003 105.694H90.5183C90.6099 106.793 91.342 107.433 92.4403 107.433C93.3556 107.433 93.9047 107.25 94.3623 106.976ZM90.7014 105.054H94.2708C94.1793 104.138 93.4471 103.589 92.5318 103.589C91.5251 103.589 90.8844 104.138 90.7014 105.054Z" fill="#008996"/>
<path d="M98.2056 103.59C97.4734 103.59 97.0158 103.773 97.0158 104.23C97.0158 104.688 97.2904 104.871 98.2056 105.054L98.5717 105.146C99.9446 105.42 100.402 105.878 100.402 106.793C100.402 107.708 99.487 108.257 98.2056 108.257C97.3819 108.257 96.6497 108.074 96.1006 107.8L96.4667 107.068C96.9243 107.342 97.6565 107.525 98.2056 107.525C99.0294 107.525 99.5785 107.342 99.5785 106.793C99.5785 106.335 99.2124 106.061 98.3887 105.878L97.9311 105.786C96.6497 105.512 96.1006 105.054 96.1006 104.23C96.1006 103.407 96.9243 102.857 98.1141 102.857C98.8463 102.857 99.5785 103.04 100.128 103.315L99.8531 104.047C99.487 103.681 98.8463 103.59 98.2056 103.59Z" fill="#008996"/>
<path d="M102.6 110.179H101.868V103.04C102.417 102.857 103.149 102.766 103.699 102.766C105.712 102.766 106.719 103.955 106.719 105.42C106.719 106.884 105.712 108.166 103.79 108.166C103.516 108.166 103.149 108.166 102.692 108.074V110.179H102.6ZM102.6 107.342C103.058 107.433 103.424 107.525 103.699 107.525C105.071 107.525 105.895 106.793 105.895 105.511C105.895 104.322 105.163 103.589 103.699 103.589C103.333 103.589 103.058 103.681 102.6 103.772V107.342Z" fill="#008996"/>
<path d="M107.725 105.511C107.725 104.047 108.914 102.766 110.379 102.766C111.935 102.766 113.033 103.955 113.033 105.511C113.033 106.976 111.843 108.166 110.379 108.166C108.914 108.257 107.725 106.976 107.725 105.511ZM112.301 105.511C112.301 104.413 111.569 103.589 110.47 103.589C109.372 103.589 108.64 104.505 108.64 105.511C108.64 106.61 109.372 107.433 110.47 107.433C111.569 107.433 112.301 106.61 112.301 105.511Z" fill="#008996"/>
<path d="M114.405 103.04C115.137 102.857 115.961 102.766 116.602 102.766C117.883 102.766 118.89 103.223 118.89 104.871V108.074H118.066V105.237C118.066 103.864 117.517 103.498 116.51 103.498C116.144 103.498 115.687 103.589 115.137 103.681V108.074H114.405V103.04Z" fill="#008996"/>
<path d="M122.277 103.59C121.545 103.59 121.087 103.773 121.087 104.23C121.087 104.688 121.362 104.871 122.277 105.054L122.643 105.146C124.016 105.42 124.473 105.878 124.473 106.793C124.473 107.708 123.558 108.257 122.277 108.257C121.453 108.257 120.721 108.074 120.172 107.8L120.538 107.068C120.996 107.342 121.728 107.525 122.277 107.525C123.101 107.525 123.65 107.342 123.65 106.793C123.65 106.335 123.284 106.061 122.46 105.878L122.002 105.786C120.721 105.512 120.172 105.054 120.172 104.23C120.172 103.407 120.996 102.857 122.185 102.857C122.918 102.857 123.65 103.04 124.199 103.315L123.924 104.047C123.558 103.681 122.918 103.59 122.277 103.59Z" fill="#008996"/>
<path d="M126.944 101.209C126.944 101.484 126.669 101.758 126.395 101.758C126.12 101.758 125.846 101.575 125.846 101.209C125.846 100.935 126.12 100.66 126.395 100.66C126.669 100.752 126.944 100.935 126.944 101.209ZM125.937 102.948H126.669V108.165H125.937V102.948Z" fill="#008996"/>
<path d="M129.325 102.947C129.782 102.856 130.148 102.856 130.423 102.856C132.345 102.856 133.352 104.046 133.352 105.602C133.352 107.158 132.345 108.256 130.331 108.256C129.782 108.256 129.05 108.164 128.501 107.981V100.385H129.233V102.947H129.325ZM129.325 107.341C129.691 107.432 130.057 107.524 130.423 107.524C131.887 107.524 132.62 106.791 132.62 105.602C132.62 104.412 131.887 103.588 130.423 103.588C130.148 103.588 129.782 103.588 129.325 103.771V107.341Z" fill="#008996"/>
<path d="M135.639 101.209C135.639 101.484 135.365 101.758 135.09 101.758C134.816 101.758 134.541 101.575 134.541 101.209C134.541 100.935 134.816 100.66 135.09 100.66C135.456 100.752 135.639 100.935 135.639 101.209ZM134.724 102.948H135.456V108.165H134.724V102.948Z" fill="#008996"/>
<path d="M137.379 108.074V100.295H138.111V108.074H137.379Z" fill="#008996"/>
<path d="M140.856 101.209C140.856 101.484 140.582 101.758 140.307 101.758C140.032 101.758 139.758 101.575 139.758 101.209C139.758 100.935 140.032 100.66 140.307 100.66C140.673 100.752 140.856 100.935 140.856 101.209ZM139.941 102.948H140.673V108.165H139.941V102.948Z" fill="#008996"/>
<path d="M141.771 102.949H142.87V101.027H143.602V102.949H145.707V103.682H143.693V106.061C143.693 107.068 143.968 107.342 144.883 107.342H145.89V108.075H144.883C143.693 108.075 142.961 107.709 142.961 106.427V103.682H141.863V102.949H141.771Z" fill="#008996"/>
<path d="M150.559 102.947H151.291V108.164C151.291 109.72 150.559 110.269 148.911 110.269C148.454 110.269 147.63 110.178 147.172 109.903L147.081 109.079C147.538 109.354 148.362 109.537 148.911 109.537C149.918 109.537 150.559 109.171 150.559 108.256V108.073C150.101 108.164 149.643 108.256 149.186 108.256C147.904 108.256 146.989 107.798 146.989 106.151V103.039H147.721V105.876C147.721 107.249 148.088 107.615 149.094 107.615C149.46 107.615 149.918 107.523 150.467 107.432V102.947H150.559Z" fill="#008996"/>
<path d="M0 73.1156C0 71.4682 1.37286 70.1868 3.56943 70.1868H4.02705V69.6377H4.85077V75.2207H6.22362V76.0444H3.47791C1.64743 76.0444 0 75.1291 0 73.1156ZM4.11857 75.2207V71.1021H3.20334C2.01353 71.1021 0.823715 71.9258 0.823715 73.2071C0.823715 74.4885 1.922 75.3122 3.20334 75.3122H4.11857V75.2207ZM1.83048 67.8988C1.83048 67.6242 2.10505 67.3496 2.47114 67.3496C2.83724 67.3496 3.11181 67.6242 3.11181 67.8988C3.11181 68.2648 2.83724 68.4479 2.47114 68.4479C2.10505 68.4479 1.83048 68.2648 1.83048 67.8988ZM3.93553 67.8988C3.93553 67.6242 4.2101 67.3496 4.57619 67.3496C4.94229 67.3496 5.21686 67.6242 5.21686 67.8988C5.21686 68.2648 4.94229 68.4479 4.57619 68.4479C4.2101 68.5394 3.93553 68.2648 3.93553 67.8988Z" fill="#008996"/>
<path d="M5.85742 75.2191H7.96247L6.40657 71.5581C7.3218 70.7344 8.51161 70.0938 9.6099 70.0938C10.7082 70.0938 11.898 70.7344 12.8132 71.5581L11.2573 75.2191H13.5454V76.0428H5.85742V75.2191ZM7.50485 71.8327L8.87771 75.1276H10.4336L11.8065 71.8327C11.2573 71.3751 10.4336 71.009 9.70143 71.009C8.87771 71.009 8.14552 71.2836 7.50485 71.8327Z" fill="#008996"/>
<path d="M13.1797 75.221H14.5525C14.3695 74.8549 14.278 74.3973 14.278 73.9397C14.278 72.2007 15.6508 70.7363 17.3898 70.7363C19.2203 70.7363 20.5931 72.1092 20.5931 73.9397C20.5931 75.7701 19.2203 77.0515 17.3898 77.0515C16.4745 77.0515 15.6508 76.6854 15.1017 76.0447H13.1797V75.221ZM19.6779 73.8481C19.6779 72.5668 18.6711 71.56 17.3898 71.56C16.1085 71.56 15.1932 72.5668 15.1932 73.8481C15.1932 75.1295 16.1085 76.1362 17.3898 76.1362C18.6711 76.1362 19.6779 75.221 19.6779 73.8481Z" fill="#008996"/>
<path d="M22.9724 67.2578H23.7961V75.2204H25.6266V76.0441H22.8809V67.2578H22.9724Z" fill="#008996"/>
<path d="M25.0781 76.0431V75.2194H29.9289C30.0204 74.7617 30.2035 74.1211 30.2035 73.3889C30.2035 72.7482 30.1119 71.9245 29.5628 71.4669C29.1967 71.1923 28.7391 71.0093 28.0984 71.0093C27.5493 71.0093 26.9086 71.1923 26.451 71.5584L26.0849 70.8262C26.8171 70.3686 27.4577 70.1855 28.373 70.1855C29.1052 70.1855 29.7458 70.4601 30.295 70.8262C30.8441 71.3754 31.2102 72.1076 31.2102 73.2058C31.2102 73.938 31.1187 74.6702 30.9357 75.3109H32.217V76.1346H25.0781V76.0431ZM27.4577 77.6905C27.4577 77.3244 27.7323 77.1414 28.0984 77.1414C28.4645 77.1414 28.7391 77.4159 28.7391 77.6905C28.7391 78.0566 28.4645 78.2397 28.0984 78.2397C27.7323 78.3312 27.4577 78.0566 27.4577 77.6905Z" fill="#008996"/>
<path d="M31.4844 75.2194H32.7657V70.1855H33.5894V76.0431H31.4844V75.2194ZM32.5827 77.6905C32.5827 77.3244 32.8572 77.1414 33.2233 77.1414C33.5894 77.1414 33.864 77.4159 33.864 77.6905C33.864 78.0566 33.5894 78.2397 33.2233 78.2397C32.8572 78.3312 32.5827 78.0566 32.5827 77.6905Z" fill="#008996"/>
<path d="M38.4404 73.1156C38.4404 71.4682 39.8133 70.1868 42.0099 70.1868H42.4675V69.6377H43.2912V75.2207H44.6641V76.0444H41.9183C40.0879 76.0444 38.4404 75.1291 38.4404 73.1156ZM42.559 75.2207V71.1021H41.7353C40.5455 71.1021 39.3557 71.9258 39.3557 73.2071C39.3557 74.4885 40.454 75.3122 41.7353 75.3122H42.559V75.2207ZM40.2709 67.8988C40.2709 67.6242 40.5455 67.3496 40.9116 67.3496C41.2777 67.3496 41.5522 67.6242 41.5522 67.8988C41.5522 68.2648 41.2777 68.4479 40.9116 68.4479C40.5455 68.4479 40.2709 68.2648 40.2709 67.8988ZM42.376 67.8988C42.376 67.6242 42.6505 67.3496 43.0166 67.3496C43.3827 67.3496 43.6573 67.6242 43.6573 67.8988C43.6573 68.2648 43.3827 68.4479 43.0166 68.4479C42.6505 68.5394 42.376 68.2648 42.376 67.8988Z" fill="#008996"/>
<path d="M44.2976 75.2194H46.5857V70.1855H47.4094V75.2194H49.606V76.0431H44.2061V75.2194H44.2976ZM45.3043 77.782C45.3043 77.4159 45.5789 77.2329 45.945 77.2329C46.3111 77.2329 46.5857 77.5075 46.5857 77.782C46.5857 78.1481 46.3111 78.3312 45.945 78.3312C45.5789 78.3312 45.3043 78.0566 45.3043 77.782ZM47.4094 77.782C47.4094 77.4159 47.684 77.2329 48.0501 77.2329C48.4162 77.2329 48.6907 77.5075 48.6907 77.782C48.6907 78.1481 48.4162 78.3312 48.0501 78.3312C47.684 78.3312 47.4094 78.0566 47.4094 77.782Z" fill="#008996"/>
<path d="M49.1484 75.2191H51.2535C50.9789 74.5784 50.6128 73.8462 50.6128 73.0225C50.6128 72.0158 51.0704 71.2836 51.6196 70.7344C52.0772 70.3683 52.7179 70.0938 53.4501 70.0938C54.2738 70.0938 54.8229 70.2768 55.6466 70.6429L55.2805 71.3751C54.7314 71.1005 54.1823 70.9175 53.5416 70.9175C52.9924 70.9175 52.5348 71.1005 52.1687 71.3751C51.7111 71.8327 51.4365 72.2903 51.4365 72.931C51.4365 73.9378 51.8026 74.6699 52.1687 75.2191H55.9212V76.0428H49.1484V75.2191Z" fill="#008996"/>
<path d="M57.7517 67.2578H58.5754V75.2204H60.4059V76.0441H57.6602V67.2578H57.7517Z" fill="#008996"/>
<path d="M59.8564 75.221H61.2293C61.0463 74.8549 60.9547 74.3973 60.9547 73.9397C60.9547 72.2007 62.3276 70.7363 64.0665 70.7363C65.897 70.7363 67.2699 72.1092 67.2699 73.9397C67.2699 74.3973 67.1784 74.8549 66.9953 75.221H68.5512V76.0447H66.4462C65.897 76.6854 65.0733 77.0515 64.1581 77.0515C63.2428 77.0515 62.4191 76.6854 61.87 76.0447H59.948V75.221H59.8564ZM66.3546 73.8481C66.3546 72.5668 65.3479 71.56 64.0665 71.56C62.7852 71.56 61.87 72.5668 61.87 73.8481C61.87 75.1295 62.7852 76.1362 64.0665 76.1362C65.3479 76.1362 66.3546 75.221 66.3546 73.8481Z" fill="#008996"/>
<path d="M68.0935 75.2201H70.3816V70.1863H71.2053V75.2201H73.4019V76.0438H68.002V75.2201H68.0935ZM69.1002 68.3558C69.1002 68.0812 69.3748 67.8066 69.7409 67.8066C70.107 67.8066 70.3816 68.0812 70.3816 68.3558C70.3816 68.7219 70.107 68.9049 69.7409 68.9049C69.3748 68.9049 69.1002 68.7219 69.1002 68.3558ZM71.2053 68.3558C71.2053 68.0812 71.4799 67.8066 71.846 67.8066C72.212 67.8066 72.4866 68.0812 72.4866 68.3558C72.4866 68.7219 72.212 68.9049 71.846 68.9049C71.4799 68.9049 71.2053 68.7219 71.2053 68.3558Z" fill="#008996"/>
<path d="M72.6709 76.0431V75.2194H78.4369C78.5284 74.7617 78.7115 74.1211 78.7115 73.3889C78.7115 72.7482 78.62 71.9245 78.0708 71.4669C77.7047 71.1923 77.2471 71.0093 76.6064 71.0093C76.0573 71.0093 75.4166 71.1923 74.959 71.5584L74.5929 70.8262C75.3251 70.3686 75.9658 70.1855 76.881 70.1855C77.6132 70.1855 78.2539 70.4601 78.803 70.8262C79.3521 71.3754 79.7182 72.1076 79.7182 73.2058C79.7182 74.3956 79.4437 75.4939 79.2606 76.1346H72.6709V76.0431ZM75.9658 77.6905C75.9658 77.3244 76.2403 77.1414 76.6064 77.1414C76.9725 77.1414 77.2471 77.4159 77.2471 77.6905C77.2471 78.0566 76.9725 78.2397 76.6064 78.2397C76.2403 78.3312 75.9658 78.0566 75.9658 77.6905Z" fill="#008996"/>
<path d="M80.6318 75.2199H83.6521C84.2928 75.2199 84.8419 75.0368 85.1165 74.7623C85.4826 74.4877 85.6656 74.0301 85.6656 73.2979V66.4336H87.3131V67.2573H86.4894V73.2979C86.4894 74.1216 86.2148 74.8538 85.6656 75.3114C85.1165 75.8606 84.2013 76.0436 83.1945 76.0436H80.6318V75.2199ZM82.3708 68.4471H83.1945V74.5792H82.3708V68.4471Z" fill="#008996"/>
<path d="M89.7852 67.2578H90.6089V76.0441H89.7852V67.2578Z" fill="#008996"/>
<path d="M96.1006 73.1156C96.1006 71.4682 97.4734 70.1868 99.67 70.1868H100.128V69.6377H100.951V75.2207H102.324V76.0444H99.5785C97.748 76.0444 96.1006 75.1291 96.1006 73.1156ZM100.219 75.2207V71.1021H99.3954C98.2056 71.1021 97.0158 71.9258 97.0158 73.2071C97.0158 74.4885 98.1141 75.3122 99.3954 75.3122H100.219V75.2207ZM97.9311 67.8988C97.9311 67.6242 98.2056 67.3496 98.5717 67.3496C98.9378 67.3496 99.2124 67.6242 99.2124 67.8988C99.2124 68.2648 98.9378 68.4479 98.5717 68.4479C98.2056 68.4479 97.9311 68.2648 97.9311 67.8988ZM100.036 67.8988C100.036 67.6242 100.311 67.3496 100.677 67.3496C101.043 67.3496 101.317 67.6242 101.317 67.8988C101.317 68.2648 101.043 68.4479 100.677 68.4479C100.311 68.5394 100.036 68.2648 100.036 67.8988Z" fill="#008996"/>
<path d="M101.958 75.2194H104.246V70.1855H105.07V75.2194H107.266V76.0431H101.866V75.2194H101.958ZM102.964 77.782C102.964 77.4159 103.239 77.2329 103.605 77.2329C103.971 77.2329 104.246 77.5075 104.246 77.782C104.246 78.1481 103.971 78.3312 103.605 78.3312C103.239 78.3312 102.964 78.0566 102.964 77.782ZM105.07 77.782C105.07 77.4159 105.344 77.2329 105.71 77.2329C106.076 77.2329 106.351 77.5075 106.351 77.782C106.351 78.1481 106.076 78.3312 105.71 78.3312C105.344 78.3312 105.07 78.0566 105.07 77.782Z" fill="#008996"/>
<path d="M106.9 75.2204H109.097V67.2578H109.92V76.0441H106.809V75.2204H106.9Z" fill="#008996"/>
<path d="M112.758 78.0563L113.033 77.2326C113.582 77.5072 113.948 77.5987 114.497 77.5987C115.412 77.5987 115.961 77.2326 115.961 76.3174V76.0428H115.412C113.49 76.0428 111.843 75.2191 111.843 73.114C111.843 71.3751 113.307 70.0938 115.412 70.0938H116.785V76.1343C116.785 77.5072 116.053 78.3309 114.405 78.3309C113.856 78.4224 113.399 78.3309 112.758 78.0563ZM115.046 75.2191H115.961V71.1005H115.046C113.856 71.1005 112.666 71.9242 112.666 73.2056C112.758 74.4869 113.765 75.2191 115.046 75.2191Z" fill="#008996"/>
<path d="M119.165 78.0568L119.44 77.2331C119.989 77.5077 120.355 77.5992 120.904 77.5992C121.819 77.5992 122.369 77.2331 122.369 76.3179V76.0433H121.819C119.897 76.0433 118.25 75.2196 118.25 73.1145C118.25 71.3756 119.714 70.0942 121.819 70.0942H123.192V75.128H124.291V75.9518H123.192V76.1348C123.192 77.5077 122.46 78.3314 120.813 78.3314C120.264 78.4229 119.806 78.3314 119.165 78.0568ZM121.453 75.2196H122.369V71.101H121.453C120.264 71.101 119.074 71.9247 119.074 73.206C119.165 74.4874 120.172 75.2196 121.453 75.2196ZM120.996 68.2638C120.996 67.3485 121.453 66.9824 122.186 66.9824H122.826V67.44H122.186C121.728 67.44 121.545 67.6231 121.545 68.0807V68.5383H123.192V69.0875H120.996V68.2638Z" fill="#008996"/>
<path d="M123.923 75.2214H126.394V70.7367H127.217V75.2214H128.865C129.597 75.2214 130.329 74.7637 130.329 73.757V70.7367H131.153V73.757V73.8485C131.153 74.6722 131.885 75.4044 132.892 75.4044C133.99 75.4044 134.539 74.7637 134.539 73.757V69.5469H135.363V73.4824C135.363 73.757 135.363 74.0315 135.272 74.3061C135.638 74.8553 136.095 75.1298 137.194 75.1298V75.9535C135.912 75.9535 135.363 75.4959 135.088 74.9468C134.722 75.679 133.99 76.0451 132.892 76.0451C131.885 76.0451 131.153 75.5875 130.787 74.9468C130.421 75.5875 129.689 75.9535 128.865 75.9535H123.831V75.2214H123.923Z" fill="#008996"/>
<path d="M136.736 75.221H138.109C137.926 74.8549 137.835 74.3973 137.835 73.9397C137.835 72.2007 139.207 70.7363 140.946 70.7363C142.777 70.7363 144.15 72.1092 144.15 73.9397C144.15 74.3973 144.058 74.8549 143.875 75.221H145.431V76.0447H143.326C142.777 76.6854 141.953 77.0515 141.038 77.0515C140.123 77.0515 139.299 76.6854 138.75 76.0447H136.828V75.221H136.736ZM143.235 73.8481C143.235 72.5668 142.228 71.56 140.946 71.56C139.665 71.56 138.75 72.5668 138.75 73.8481C138.75 75.1295 139.665 76.1362 140.946 76.1362C142.228 76.1362 143.235 75.221 143.235 73.8481Z" fill="#008996"/>
<path d="M144.975 75.2204H146.622V67.2578H147.446V76.0441H144.975V75.2204Z" fill="#008996"/>
<path d="M150.189 67.2578H151.013V76.0441H150.189V67.2578Z" fill="#008996"/>
<path d="M2.74609 88.2152C2.74609 86.5678 4.11895 85.2865 6.31552 85.2865H6.77314V84.7373H7.59686V90.3203H8.96972V91.144H6.224C4.39352 91.144 2.74609 90.2288 2.74609 88.2152ZM6.86467 90.2287V86.1102H5.94943C4.75962 86.1102 3.56981 86.9339 3.56981 88.2152C3.56981 89.4966 4.6681 90.3203 5.94943 90.3203H6.86467V90.2287ZM4.57657 82.9984C4.57657 82.7238 4.85114 82.4492 5.21724 82.4492C5.58333 82.4492 5.85791 82.7238 5.85791 82.9984C5.85791 83.3645 5.58333 83.5475 5.21724 83.5475C4.85114 83.5475 4.57657 83.3645 4.57657 82.9984ZM6.68162 82.9984C6.68162 82.7238 6.95619 82.4492 7.32229 82.4492C7.68838 82.4492 7.96295 82.7238 7.96295 82.9984C7.96295 83.3645 7.68838 83.5475 7.32229 83.5475C6.95619 83.5475 6.68162 83.3645 6.68162 82.9984Z" fill="#008996"/>
<path d="M8.60352 90.2291H10.8916V85.1953H11.7153V90.2291H13.9119V91.0528H8.60352V90.2291ZM9.61028 92.7918C9.61028 92.4257 9.88485 92.2427 10.2509 92.2427C10.617 92.2427 10.8916 92.5172 10.8916 92.7918C10.8916 93.1579 10.617 93.3409 10.2509 93.3409C9.88485 93.3409 9.61028 93.1579 9.61028 92.7918ZM11.7153 92.7918C11.7153 92.4257 11.9899 92.2427 12.356 92.2427C12.7221 92.2427 12.9967 92.5172 12.9967 92.7918C12.9967 93.1579 12.7221 93.3409 12.356 93.3409C11.9899 93.4325 11.7153 93.1579 11.7153 92.7918Z" fill="#008996"/>
<path d="M13.3623 90.2301H15.4674V85.1963H16.2911V90.2301H17.6639V91.0538H13.3623V90.2301ZM15.1928 83.4573C15.1928 83.0912 15.4674 82.9082 15.8334 82.9082C16.1995 82.9082 16.4741 83.1828 16.4741 83.4573C16.4741 83.8234 16.1995 84.0065 15.8334 84.0065C15.4674 84.0065 15.1928 83.8234 15.1928 83.4573Z" fill="#008996"/>
<path d="M17.115 90.2301H19.6776C19.1285 89.7725 18.6709 89.1318 18.6709 88.1251C18.6709 86.3861 19.9522 85.1963 22.1488 85.1963H23.6132V90.2301H24.7114V91.0538H17.0234V90.2301H17.115ZM20.8674 90.2301H22.7894V86.1115H21.8742C20.6844 86.1115 19.5861 86.9353 19.5861 88.2166C19.5861 89.1318 20.1352 89.7725 20.8674 90.2301ZM20.0437 83.4573C20.0437 83.1828 20.3183 82.9082 20.6844 82.9082C21.0505 82.9082 21.3251 83.1828 21.3251 83.4573C21.3251 83.8234 21.0505 84.0065 20.6844 84.0065C20.3183 84.0065 20.0437 83.8234 20.0437 83.4573ZM22.1488 83.4573C22.1488 83.1828 22.4233 82.9082 22.7894 82.9082C23.1555 82.9082 23.4301 83.1828 23.4301 83.4573C23.4301 83.8234 23.1555 84.0065 22.7894 84.0065C22.4233 84.0065 22.1488 83.8234 22.1488 83.4573Z" fill="#008996"/>
<path d="M24.1618 90.2301H26.4499V85.1963H27.2736V90.2301H29.4702V91.0538H24.0703V90.2301H24.1618ZM25.1686 83.4573C25.1686 83.1828 25.4432 82.9082 25.8093 82.9082C26.1754 82.9082 26.4499 83.1828 26.4499 83.4573C26.4499 83.8234 26.1754 84.0065 25.8093 84.0065C25.4432 84.0065 25.1686 83.8234 25.1686 83.4573ZM27.2736 83.4573C27.2736 83.1828 27.5482 82.9082 27.9143 82.9082C28.2804 82.9082 28.555 83.1828 28.555 83.4573C28.555 83.8234 28.2804 84.0065 27.9143 84.0065C27.5482 84.0065 27.2736 83.8234 27.2736 83.4573Z" fill="#008996"/>
<path d="M28.739 90.2304H31.3017V82.3594H32.1254V91.1457H28.6475V90.2304H28.739Z" fill="#008996"/>
<path d="M34.8701 82.3594H35.6938V91.1457H34.8701V82.3594Z" fill="#008996"/>
<path d="M38.6232 93.1579L38.8978 92.3342C39.447 92.6087 39.8131 92.7003 40.3622 92.7003C41.2774 92.7003 41.8266 92.3342 41.8266 91.4189V91.1444H41.2774C39.3554 91.1444 37.708 90.3207 37.708 88.2156C37.708 86.4766 39.1724 85.1953 41.2774 85.1953H42.6503V91.2359C42.6503 92.6087 41.9181 93.4325 40.2707 93.4325C39.7215 93.524 39.2639 93.4325 38.6232 93.1579ZM40.9113 90.2291H41.8266V86.1106H40.9113C39.7215 86.1106 38.5317 86.9343 38.5317 88.2156C38.6232 89.4969 39.63 90.2291 40.9113 90.2291Z" fill="#008996"/>
<path d="M47.4092 93.5245V92.0601C47.4092 90.8703 47.6838 90.1381 48.1414 89.589C48.599 89.0398 49.2397 88.7652 49.9718 88.7652H50.0634C50.2464 87.2093 51.5278 86.0195 53.1752 86.0195C55.0057 86.0195 56.3785 87.3924 56.3785 89.2229C56.3785 91.0533 54.9141 92.3347 53.0837 92.3347C51.5278 92.3347 50.2464 91.1449 50.0634 89.6805C49.4227 89.6805 49.0566 89.9551 48.6905 90.2296C48.3244 90.5957 48.3244 91.2364 48.3244 91.7855V93.433H47.4092V93.5245ZM55.3718 89.1313C55.3718 87.85 54.365 86.8432 53.0837 86.8432C51.8023 86.8432 50.8871 87.85 50.8871 89.1313C50.8871 90.4127 51.8023 91.4194 53.0837 91.4194C54.4565 91.4194 55.3718 90.4127 55.3718 89.1313Z" fill="#008996"/>
<path d="M58.759 93.1579L59.0336 92.3342C59.5827 92.6087 59.9488 92.7003 60.4979 92.7003C61.4132 92.7003 61.9623 92.3342 61.9623 91.4189V91.1444H61.4132C59.4912 91.1444 57.8438 90.3207 57.8438 88.2156C57.8438 86.4766 59.3081 85.1953 61.4132 85.1953H62.786V90.2291H63.8843V91.0528H62.786V91.2359C62.786 92.6087 62.0538 93.4325 60.4064 93.4325C59.8573 93.524 59.3997 93.4325 58.759 93.1579ZM61.0471 90.2291H61.9623V86.1106H61.0471C59.8573 86.1106 58.6675 86.9343 58.6675 88.2156C58.759 89.4969 59.7657 90.2291 61.0471 90.2291Z" fill="#008996"/>
<path d="M63.5176 90.2304H65.165V82.3594H65.9887V90.3219H67.6362V91.1457H63.5176V90.2304Z" fill="#008996"/>
<path d="M67.1787 90.2308H69.2838L67.7279 86.5698C68.6431 85.7461 69.8329 85.1055 70.9312 85.1055C72.0295 85.1055 73.2193 85.7461 74.1345 86.5698L72.5786 90.2308H74.8667V91.0545H67.1787V90.2308ZM68.8261 86.9359L70.199 90.2308H71.7549L73.1278 86.9359C72.5786 86.4783 71.7549 86.1122 71.0227 86.1122C70.199 86.1122 69.4668 86.3868 68.8261 86.9359Z" fill="#008996"/>
<path d="M74.5 90.2304H76.1474V82.3594H76.9711V90.3219H78.6186V91.1457H74.5V90.2304Z" fill="#008996"/>
<path d="M78.1611 90.2304H79.8086V82.3594H80.6323V91.1457H78.1611V90.2304Z" fill="#008996"/>
<path d="M86.0322 88.2162C86.0322 86.5688 87.4051 85.2874 89.6017 85.2874H90.0593V84.7383H90.883V90.3212H92.2559V91.145H89.5101C87.6797 91.145 86.0322 90.2297 86.0322 88.2162ZM90.1508 90.2297V86.1111H89.3271C88.1373 86.1111 86.9475 86.9349 86.9475 88.2162C86.9475 89.4975 88.0458 90.3212 89.3271 90.3212H90.1508V90.2297Z" fill="#008996"/>
<path d="M91.8906 90.2304H93.5381V82.3594H94.3618V90.3219H96.0092V91.1457H91.8906V90.2304Z" fill="#008996"/>
<path d="M95.5518 90.2304H97.1992V82.3594H98.0229V91.1457H95.5518V90.2304Z" fill="#008996"/>
<path d="M100.768 82.3594H101.591V91.1457H100.768V82.3594Z" fill="#008996"/>
<path d="M103.239 90.2291H107.266V87.6665C107.266 87.2088 107.175 86.8427 106.9 86.4766C106.625 86.2021 106.259 86.019 105.802 86.019H105.069V85.1953H105.71C106.534 85.1953 107.083 85.4699 107.541 85.9275C107.907 86.3851 108.09 86.9343 108.09 87.6665V90.2291H109.463V91.0528H103.147V90.2291H103.239Z" fill="#008996"/>
<path d="M109.28 90.2291H110.562V85.1953H111.385V90.2291H112.758V91.0528H109.28V90.2291ZM110.379 92.7918C110.379 92.4257 110.653 92.2427 111.019 92.2427C111.385 92.2427 111.66 92.5172 111.66 92.7918C111.66 93.1579 111.385 93.3409 111.019 93.3409C110.653 93.4325 110.379 93.1579 110.379 92.7918Z" fill="#008996"/>
<path d="M112.574 90.2308H114.405C114.13 89.5901 113.764 88.8579 113.764 88.0342C113.764 87.0275 114.222 86.2953 114.771 85.7461C115.228 85.38 115.869 85.1055 116.601 85.1055C117.425 85.1055 117.974 85.2885 118.798 85.6546L118.432 86.3868C117.883 86.1122 117.333 85.9292 116.693 85.9292C116.144 85.9292 115.686 86.1122 115.32 86.3868C114.862 86.8444 114.588 87.302 114.588 87.9427C114.588 88.9495 114.954 89.6817 115.32 90.2308H119.072V91.0545H112.574V90.2308Z" fill="#008996"/>
<path d="M125.114 90.4135C124.565 89.9559 124.382 89.1321 124.382 88.4915V86.2949H125.206V88.3999C125.206 89.1321 125.389 89.5898 125.755 89.8643C126.121 90.2304 126.761 90.3219 127.402 90.3219H130.972V82.3594H131.887V90.3219H133.809V91.1457H127.677C126.395 91.1457 125.663 90.9626 125.114 90.4135ZM127.128 86.844C127.128 85.9288 127.585 85.5627 128.317 85.5627H128.958V86.0203H128.317C127.86 86.0203 127.677 86.2034 127.677 86.661V87.1186H129.324V87.6678H127.128V86.844Z" fill="#008996"/>
<path d="M133.075 90.2304H134.723V82.3594H135.546V90.3219H137.194V91.1457H133.075V90.2304Z" fill="#008996"/>
<path d="M136.736 90.2308H138.109C137.926 89.8647 137.835 89.407 137.835 88.9494C137.835 87.2105 139.207 85.7461 140.946 85.7461C142.777 85.7461 144.15 87.119 144.15 88.9494C144.15 89.407 144.058 89.8647 143.875 90.2308H145.431V91.0545H143.326C142.777 91.6951 141.953 92.0612 141.038 92.0612C140.123 92.0612 139.299 91.6951 138.75 91.0545H136.828V90.2308H136.736ZM143.235 88.9494C143.235 87.6681 142.228 86.6613 140.946 86.6613C139.665 86.6613 138.75 87.6681 138.75 88.9494C138.75 90.2308 139.665 91.2375 140.946 91.2375C142.228 91.2375 143.235 90.2308 143.235 88.9494Z" fill="#008996"/>
<path d="M144.975 90.2304H146.622V82.3594H147.446V91.1457H144.975V90.2304Z" fill="#008996"/>
<path d="M150.189 82.3594H151.013V91.1457H150.189V82.3594Z" fill="#008996"/>
<path d="M182.681 124.092H196.684C193.389 121.895 185.061 114.665 183.047 100.112C181.033 85.56 179.569 41.7201 179.569 40.1642C179.569 40.1642 179.111 39.2489 178.105 40.2557C178.105 40.2557 175.45 95.2615 174.535 100.661C173.62 106.061 170.874 118.417 160.166 124.092H167.579C180.301 118.326 176.732 119.332 182.681 124.092Z" fill="#6067B0"/>
<path d="M129.688 41.7227L137.834 44.2853L141.495 49.0446L138.932 53.9869L131.336 51.5157L129.688 41.7227Z" stroke="#CED529" stroke-width="1.2963" stroke-miterlimit="10"/>
<path d="M134.448 30.3711L140.123 32.11L143.143 35.2219V39.432L138.384 40.1641L134.448 34.5812V30.3711Z" stroke="#CED529" stroke-width="1.2963" stroke-miterlimit="10"/>
<path d="M138.201 18.75L137.286 20.672L138.201 25.7973L141.222 27.2617L143.144 23.6008L140.489 20.3059L138.201 18.75Z" stroke="#CED529" stroke-width="1.2963" stroke-miterlimit="10"/>
<path d="M147.353 12.5254L149.55 15.5457L149.641 19.7558L147.353 21.4947L144.607 17.4677L147.353 12.5254Z" stroke="#CED529" stroke-width="1.2963" stroke-miterlimit="10"/>
<path d="M165.842 2.91602H164.743L162.821 8.5905L164.926 11.7023L168.13 8.68202L166.94 3.64821L165.842 2.91602Z" stroke="#CED529" stroke-width="1.2963" stroke-miterlimit="10"/>
<path d="M174.079 2L173.164 3.64743L172.432 8.86429L174.262 11.61L177.832 9.96258L177.191 5.93553L174.079 2Z" stroke="#CED529" stroke-width="1.2963" stroke-miterlimit="10"/>
<path d="M184.512 2L182.407 4.01353L180.76 8.40667L182.224 11.8846L185.702 9.50496V5.02029L184.512 2Z" stroke="#CED529" stroke-width="1.2963" stroke-miterlimit="10"/>
<path d="M192.566 3.09961L191.743 3.28266L189.912 8.22495L190.553 10.7876L192.383 11.7029L195.129 8.22495L193.573 4.01485L192.566 3.09961Z" stroke="#CED529" stroke-width="1.2963" stroke-miterlimit="10"/>
<path d="M200.254 7.67383L197.325 12.9822L195.952 20.8533L198.972 25.0634L201.444 24.8803L204.189 18.1991L201.901 9.50431L200.254 7.67383Z" stroke="#9FC53B" stroke-width="1.2963" stroke-miterlimit="10"/>
<path d="M210.139 12.8008L208.491 16.0956V20.1227L210.596 21.4955L212.884 19.2075L212.152 14.9974L210.139 12.8008Z" stroke="#CED529" stroke-width="1.2963" stroke-miterlimit="10"/>
<path d="M219.657 19.1152L217.369 20.4881L215.264 23.783L215.63 26.3456L217.186 27.2609L220.023 24.2406L220.206 20.305L219.657 19.1152Z" stroke="#CED529" stroke-width="1.2963" stroke-miterlimit="10"/>
<path d="M223.226 30.3711L218.467 31.4694L214.257 35.588L214.531 39.432L217.735 40.5302L222.311 37.1439L223.409 33.4829L223.226 30.3711Z" stroke="#CED529" stroke-width="1.2963" stroke-miterlimit="10"/>
<path d="M227.986 41.7227L222.037 43.6447L217.095 47.6717L216.82 52.614L219.017 54.2614L223.227 53.7123L227.163 48.4954L227.986 41.7227Z" stroke="#CED529" stroke-width="1.2963" stroke-miterlimit="10"/>
<path d="M229.543 57.0059L222.312 59.8431L219.933 65.9752L220.939 66.5243L224.783 66.7074L230 58.5618L229.543 57.0059Z" stroke="#CED529" stroke-width="1.2963" stroke-miterlimit="10"/>
<path d="M140.489 37.2363C140.489 37.2363 142.228 39.2499 146.713 39.5244" stroke="#CED529" stroke-width="1.2963" stroke-miterlimit="10"/>
<path d="M136.188 48.1289C136.188 48.1289 137.011 50.417 144.974 54.6271" stroke="#CED529" stroke-width="1.2963" stroke-miterlimit="10"/>
<path d="M200.803 16.918C200.803 16.918 201.81 23.5992 199.247 29.5483" stroke="#9FC53B" stroke-width="1.2963" stroke-miterlimit="10"/>
<path d="M218.285 37.2363C218.285 37.2363 216.546 39.2499 212.062 39.5244" stroke="#CED529" stroke-width="1.2963" stroke-miterlimit="10"/>
<path d="M222.586 48.1289C222.586 48.1289 221.762 50.417 213.8 54.6271" stroke="#CED529" stroke-width="1.2963" stroke-miterlimit="10"/>
<path d="M146.162 26.1621L153.484 28.4502L156.779 32.1112V37.6941L153.484 38.6094L147.81 34.3993L146.162 26.1621Z" stroke="#88B13F" stroke-width="1.2963" stroke-miterlimit="10"/>
<path d="M157.694 7.94922L161.447 15.2711L161.721 21.4948L158.243 25.4303L153.759 21.0371L154.857 12.7085L157.694 7.94922Z" stroke="#88B13F" stroke-width="1.2963" stroke-miterlimit="10"/>
<path d="M170.416 12.8027L167.304 15.2739L165.474 20.3077L167.67 23.6026L171.697 21.7721L172.429 16.0061L170.416 12.8027Z" stroke="#88B13F" stroke-width="1.2963" stroke-miterlimit="10"/>
<path d="M187.898 12.8027L186.891 13.0773L185.701 19.7585L186.983 22.7788L190.094 23.6026L192.382 20.9484L191.925 17.0128L187.898 12.8027Z" stroke="#88B13F" stroke-width="1.2963" stroke-miterlimit="10"/>
<path d="M211.602 26.1621L205.653 27.9926L200.619 32.8434L201.443 38.6094L206.66 38.5178L211.236 30.3722L211.602 26.1621Z" stroke="#88B13F" stroke-width="1.2963" stroke-miterlimit="10"/>
<path d="M212.426 43.2773L207.301 44.0095L199.704 47.6705L198.697 53.345L201.443 55.45L206.019 54.7178L210.321 48.9518L212.426 43.2773Z" stroke="#88B13F" stroke-width="1.2963" stroke-miterlimit="10"/>
<path d="M216.361 58.0117L206.476 58.5609L198.971 62.954L198.147 69.1776L204.097 71.6488L212.425 66.5234L215.537 61.6727L216.361 58.0117Z" stroke="#88B13F" stroke-width="1.2963" stroke-miterlimit="10"/>
<path d="M226.429 72.4745L219.198 70.4609L212.425 71.3762L209.68 76.41L210.412 78.4235L216.361 80.437L225.239 74.9456L226.429 72.4745Z" stroke="#88B13F" stroke-width="1.2963" stroke-miterlimit="10"/>
<path d="M157.969 16.918C157.969 16.918 156.963 23.5992 159.525 29.5483" stroke="#88B13F" stroke-width="1.2963" stroke-miterlimit="10"/>
<path d="M152.479 33.5762C152.479 33.5762 157.146 38.2439 157.604 42.9116" stroke="#88B13F" stroke-width="1.2963" stroke-miterlimit="10"/>
<path d="M168.219 21.4941C168.219 21.4941 167.212 24.789 169.042 27.7178" stroke="#88B13F" stroke-width="1.2963" stroke-miterlimit="10"/>
<path d="M206.292 33.5762C206.292 33.5762 201.625 38.2439 201.167 42.9116" stroke="#88B13F" stroke-width="1.2963" stroke-miterlimit="10"/>
<path d="M216.087 74.3965C216.087 74.3965 214.348 76.1354 205.379 76.5015" stroke="#88B13F" stroke-width="1.2963" stroke-miterlimit="10"/>
<path d="M205.103 50.0508C205.103 50.0508 200.435 51.7897 198.422 57.7388" stroke="#88B13F" stroke-width="1.2963" stroke-miterlimit="10"/>
<path d="M202.54 65.6074C202.54 65.6074 197.872 67.3464 195.858 73.2954" stroke="#88B13F" stroke-width="1.2963" stroke-miterlimit="10"/>
<path d="M189.637 21.5879C189.637 21.5879 191.467 24.4251 190.643 27.8115" stroke="#88B13F" stroke-width="1.2963" stroke-miterlimit="10"/>
<path d="M170.599 52.7953L175.084 46.3886L166.755 30.6465L162.179 42.5446L164.65 50.7817L170.599 52.7953Z" stroke="#9FC53B" stroke-width="1.2963" stroke-miterlimit="10"/>
<path d="M146.162 43.002L156.779 46.2968L159.342 51.5137L156.23 55.9068L148.542 51.5137L146.162 43.002Z" stroke="#9FC53B" stroke-width="1.2963" stroke-miterlimit="10"/>
<path d="M178.928 15.9121L183.138 22.9594L184.969 31.1051L179.569 37.6948L173.162 32.9356L173.894 24.2408L178.928 15.9121Z" stroke="#9FC53B" stroke-width="1.2963" stroke-miterlimit="10"/>
<path d="M192.656 30.373L188.812 33.3933L183.87 43.3694L185.701 50.3253L188.995 51.7896L195.311 47.5795L195.494 38.6102L192.656 30.373Z" stroke="#9FC53B" stroke-width="1.2963" stroke-miterlimit="10"/>
<path d="M192.382 57.6465L185.701 61.7651L182.681 66.8904L184.694 72.1073L188.355 71.6496L192.382 66.3413L192.84 60.7583L192.382 57.6465Z" stroke="#9FC53B" stroke-width="1.2963" stroke-miterlimit="10"/>
<path d="M164.193 57.6465L170.874 61.7651L173.895 66.8904L171.881 72.1073L168.22 71.6496L164.193 66.3413L163.735 60.7583L164.193 57.6465Z" stroke="#9FC53B" stroke-width="1.2963" stroke-miterlimit="10"/>
<path d="M197.507 76.4102L206.659 80.8948L209.68 84.4643L207.209 86.0202L194.395 88.2167L188.721 81.7185L191.741 77.5084L197.507 76.4102Z" stroke="#9FC53B" stroke-width="1.2963" stroke-miterlimit="10"/>
<path d="M153.667 50.0527C153.667 50.0527 158.335 51.7917 160.348 57.7407" stroke="#9FC53B" stroke-width="1.2963" stroke-miterlimit="10"/>
<path d="M168.128 40.5312L170.508 58.1038" stroke="#9FC53B" stroke-width="1.2963" stroke-miterlimit="10"/>
<path d="M194.762 82.0835C194.762 82.0835 190.185 84.097 184.603 81.2598" stroke="#9FC53B" stroke-width="1.2963" stroke-miterlimit="10"/>
<path d="M190.643 40.5312L188.264 58.1038" stroke="#9FC53B" stroke-width="1.2963" stroke-miterlimit="10"/>
<path d="M179.202 31.6543L179.751 39.3423" stroke="#9FC53B" stroke-width="0.8791" stroke-miterlimit="10"/>
<path d="M186.341 68.6289C186.341 68.6289 183.87 71.0085 183.87 74.3949" stroke="#9FC53B" stroke-width="1.2963" stroke-miterlimit="10"/>
<path d="M169.867 68.5371C169.867 68.5371 172.338 70.9167 172.338 74.3031" stroke="#9FC53B" stroke-width="1.2963" stroke-miterlimit="10"/>
</svg>
