<svg width="230" height="110" viewBox="0 0 230 110" fill="none" xmlns="http://www.w3.org/2000/svg">
<path d="M16.1553 76.2831V65.2656H17.3067V70.7919L22.2961 65.2656H23.7266L18.7023 70.7569L24.1453 76.2831H22.6799L17.3067 70.8268V76.2831H16.1553Z" fill="#808285"/>
<path d="M34.6111 76.2831H33.4248L32.1688 73.0653H27.1445L25.8884 76.2831H24.7021L28.9937 65.2656H30.3196L34.6111 76.2831ZM27.5632 71.9811H31.7501L29.6566 66.5597L27.5632 71.9811Z" fill="#808285"/>
<path d="M35.9375 72.016V65.2656H37.0889V71.7362C37.0889 74.1146 38.0658 75.3388 40.5082 75.3388C42.9157 75.3388 43.9275 74.1146 43.9275 71.7362V65.2656H45.0789V72.016C45.0789 74.4294 43.9275 76.458 40.5082 76.458C37.1238 76.423 35.9375 74.4294 35.9375 72.016Z" fill="#808285"/>
<path d="M51.2548 75.3728C52.9296 75.3728 54.081 74.7083 54.081 73.3442C54.081 72.1201 53.104 71.5604 51.5688 71.1407L50.7314 70.8959C48.7776 70.3363 47.8355 69.287 47.8355 67.818C47.8355 66.0342 49.4754 65.0898 51.4293 65.0898C52.79 65.0898 54.1507 65.4746 55.0928 66.0692L54.6043 67.0835C53.7669 66.5239 52.5806 66.1741 51.4293 66.1741C50.1732 66.1741 49.0567 66.6638 49.0567 67.783C49.0567 68.8323 49.7894 69.3919 51.185 69.8116L52.0922 70.0565C53.732 70.5112 55.3021 71.4205 55.3021 73.2743C55.3021 75.3029 53.732 76.4221 51.2897 76.4221C49.8941 76.4221 48.4635 76.0374 47.5215 75.4428L48.0448 74.4285C48.8473 74.9531 50.0685 75.3728 51.2548 75.3728Z" fill="#808285"/>
<path d="M60.1873 66.3499H56.3145V65.2656H65.2116V66.3499H61.3387V76.2831H60.1873V66.3499Z" fill="#808285"/>
<path d="M71.8745 70.7578C71.8745 73.7307 73.9331 75.3396 76.3056 75.3396C77.5268 75.3396 78.5735 74.9899 79.376 74.5002L79.8296 75.4795C78.8876 76.0392 77.6315 76.3889 76.2707 76.3889C72.8166 76.3889 70.6533 73.9056 70.6533 70.7228C70.6533 67.5399 72.8166 65.0566 76.2707 65.0566C77.6315 65.0566 78.8876 65.4064 79.8296 65.966L79.376 66.9454C78.5735 66.4557 77.4919 66.1059 76.3056 66.1059C73.9331 66.1759 71.8745 67.7848 71.8745 70.7578Z" fill="#808285"/>
<path d="M81.1904 74.0799C81.1904 72.366 82.6558 71.6315 84.8191 71.6315C85.2378 71.6315 85.796 71.7015 86.4241 71.7714V71.5966C86.4241 70.3024 85.6914 69.8128 84.3655 69.8128C83.563 69.8128 82.5512 70.1276 81.8882 70.4773L82.0627 69.2532C82.7954 68.9384 83.563 68.7285 84.5051 68.7285C86.4241 68.7285 87.5406 69.533 87.5406 71.5616V75.8986C86.7032 76.2484 85.6216 76.4583 84.5748 76.4583C82.7954 76.4233 81.1904 75.8637 81.1904 74.0799ZM86.4241 72.8207C86.0054 72.7158 85.3424 72.6458 84.8191 72.6458C83.5979 72.6458 82.3418 72.8907 82.3418 74.0449C82.3418 75.0942 83.4234 75.374 84.54 75.374C85.2029 75.374 85.8658 75.2341 86.4241 75.0592V72.8207Z" fill="#808285"/>
<path d="M93.9262 69.9167H92.8445C92.391 69.9167 91.5536 70.0216 91.2047 70.1615V76.3173H90.123V69.2521C90.8558 69.0772 91.8676 68.9023 92.6352 68.9023H93.9262V69.9167Z" fill="#808285"/>
<path d="M101.288 74.6745L101.777 75.6538C101.009 76.0735 100.102 76.4233 98.7061 76.4233C96.4731 76.4233 94.8682 74.7794 94.8682 72.5759C94.8682 70.3024 96.5429 68.7285 98.6713 68.7285C100.8 68.7285 102.37 70.2325 102.335 72.8907H96.0196C96.1591 74.3947 97.2058 75.374 98.741 75.374C99.8227 75.374 100.66 75.0592 101.288 74.6745ZM96.0544 71.9114H101.114C100.974 70.5823 99.9971 69.8128 98.6364 69.8128C97.2058 69.7778 96.2987 70.6172 96.0544 71.9114Z" fill="#808285"/>
<path d="M110.045 74.6745L110.533 75.6538C109.766 76.0735 108.859 76.4233 107.463 76.4233C105.23 76.4233 103.625 74.7794 103.625 72.5759C103.625 70.3024 105.3 68.7285 107.428 68.7285C109.556 68.7285 111.127 70.2325 111.092 72.8907H104.776C104.881 74.3947 105.963 75.374 107.498 75.374C108.614 75.374 109.417 75.0592 110.045 74.6745ZM104.811 71.9114H109.87C109.731 70.5823 108.754 69.8128 107.393 69.8128C105.963 69.7778 105.056 70.6172 104.811 71.9114Z" fill="#808285"/>
<path d="M116.71 69.9167H115.629C115.175 69.9167 114.338 70.0216 113.989 70.1615V76.3173H112.907V69.2521C113.64 69.0772 114.652 68.9023 115.419 68.9023H116.71V69.9167Z" fill="#808285"/>
<path d="M69.2933 91.5346H74.7362V92.5839H68.1768V81.5664H69.2933V91.5346Z" fill="#808285"/>
<path d="M75.8174 90.4139C75.8174 88.7 77.2828 87.9655 79.446 87.9655C79.8647 87.9655 80.423 88.0355 81.051 88.1054V87.9306C81.051 86.6364 80.3183 86.1468 78.9924 86.1468C78.19 86.1468 77.1781 86.4616 76.5152 86.8113L76.6897 85.5871C77.4224 85.2724 78.19 85.0625 79.132 85.0625C81.051 85.0625 82.1675 85.867 82.1675 87.8956V92.2326C81.3301 92.5824 80.2485 92.7923 79.2018 92.7923C77.4573 92.7573 75.8174 92.1627 75.8174 90.4139ZM81.051 89.1198C80.6323 89.0148 79.9694 88.9449 79.446 88.9449C78.2249 88.9449 76.9688 89.1897 76.9688 90.3439C76.9688 91.3932 78.0504 91.673 79.1669 91.673C79.8298 91.673 80.4928 91.5331 81.051 91.3582V89.1198Z" fill="#808285"/>
<path d="M89.496 85.2012H90.5776V92.2314C89.6006 92.5462 88.6237 92.756 87.577 92.756C85.6929 92.756 84.4717 92.1614 84.4717 89.7131V85.2361H85.5533V89.2584C85.5533 91.2171 86.0418 91.7067 87.577 91.7067C88.1352 91.7067 88.7284 91.6368 89.4611 91.4269V85.2012H89.496Z" fill="#808285"/>
<path d="M93.2275 85.3752C94.3092 85.1653 95.4954 85.0254 96.3328 85.0254C98.2169 85.0254 99.5428 85.62 99.5428 88.0683V92.5803H98.4612V88.523C98.4612 86.5643 97.6936 86.0747 96.2979 86.0747C95.7397 86.0747 95.0767 86.1446 94.344 86.2845V92.5803H93.2624V85.3752H93.2275Z" fill="#808285"/>
<path d="M105.125 85.0254C106.172 85.0254 106.975 85.2702 107.672 85.62L107.184 86.6343C106.626 86.2845 105.963 86.0747 105.125 86.0747C103.555 86.0747 102.474 87.2639 102.474 88.8728C102.474 90.4467 103.555 91.6359 105.125 91.6359C105.963 91.6359 106.626 91.426 107.184 91.0763L107.672 92.0906C106.94 92.4753 106.137 92.6852 105.125 92.6852C102.997 92.6852 101.322 91.0763 101.322 88.8378C101.322 86.5993 102.997 85.0254 105.125 85.0254Z" fill="#808285"/>
<path d="M110.639 85.2039C111.372 85.099 112.07 85.0291 112.663 85.0291C114.547 85.0291 115.873 85.6237 115.873 88.072V92.5839H114.791V88.5267C114.791 86.568 114.024 86.0783 112.628 86.0783C112.07 86.0783 111.407 86.1483 110.674 86.2882V92.5839H109.558V81.5664H110.639V85.2039Z" fill="#808285"/>
<path d="M32.4834 42.0416V40.2229C32.4834 38.8588 32.7625 37.9844 33.3208 37.3198C33.879 36.6903 34.6466 36.3755 35.5189 36.3755H35.6236C35.8329 34.4868 37.3332 33.0527 39.2522 33.0527C41.3805 33.0527 43.0204 34.6966 43.0204 36.8302C43.0204 37.2849 42.9157 37.7395 42.7762 38.1243H44.5905V39.1736H42.2179C41.5201 40.048 40.4385 40.5726 39.2522 40.5726C37.3681 40.5726 35.9027 39.2085 35.6236 37.4248H35.5887C34.856 37.4248 34.3326 37.7046 33.9837 38.1243C33.5999 38.579 33.4952 39.2785 33.4952 40.013V42.0066H32.4834V42.0416ZM42.0086 36.8302C42.0086 35.2562 40.8572 34.102 39.2871 34.102C37.7519 34.102 36.6354 35.3262 36.6354 36.8302C36.6354 38.2992 37.7519 39.5233 39.2871 39.5233C40.8223 39.5583 42.0086 38.4041 42.0086 36.8302Z" fill="#808285"/>
<path d="M44.2068 38.1583H45.9164C45.5326 37.4588 45.1488 36.5144 45.1488 35.5351C45.1488 34.3109 45.6722 33.4365 46.37 32.8419C46.9282 32.3872 47.6958 32.1074 48.5332 32.1074C49.5799 32.1074 50.208 32.3523 51.1151 32.8069L50.6616 33.7163C50.0335 33.3666 49.3706 33.1217 48.603 33.1217C47.9052 33.1217 47.3818 33.2966 46.998 33.6114C46.4049 34.1011 46.1606 34.7306 46.1606 35.4302C46.1606 36.5844 46.5444 37.4588 47.0329 38.1233H51.4291V39.1726H44.1719V38.1583H44.2068Z" fill="#808285"/>
<path d="M52.3369 38.1585H57.1518V35.1505C57.1518 34.5559 57.0472 34.1362 56.768 33.7865C56.4889 33.4367 56.0004 33.1919 55.512 33.1919H54.6048V32.1426H55.3724C56.3494 32.1426 57.0123 32.4224 57.5356 33.052C57.9892 33.5416 58.1986 34.2761 58.1986 35.0806V38.1235H59.8035V39.1728H52.3369V38.1585Z" fill="#808285"/>
<path d="M59.5576 38.1604H61.5115V28.7168H62.5233V39.2097H59.5576V38.1604Z" fill="#808285"/>
<path d="M69.3281 38.3343C68.7 37.7747 68.4209 36.7604 68.4209 35.9909V33.3677H69.4676V35.816C69.4676 36.6554 69.7119 37.25 70.1654 37.5998C70.6539 37.9845 71.3517 38.1594 72.1193 38.1594H76.3062V32.1785H77.3529V38.1594H78.9579V39.2087H72.3287C70.8633 39.2087 70.0608 38.9639 69.3281 38.3343ZM71.0726 31.0942C71.0726 30.7095 71.3866 30.4297 71.7704 30.4297C72.1542 30.4297 72.4682 30.7445 72.4682 31.0942C72.4682 31.5139 72.1542 31.7938 71.7704 31.7938C71.3866 31.7938 71.0726 31.5139 71.0726 31.0942ZM73.5498 31.0942C73.5498 30.7095 73.8639 30.4297 74.2477 30.4297C74.6663 30.4297 74.9804 30.7445 74.9804 31.0942C74.9804 31.5139 74.6663 31.7938 74.2477 31.7938C73.8639 31.7938 73.5498 31.5139 73.5498 31.0942Z" fill="#808285"/>
<path d="M86.8433 38.0189C86.3549 38.7184 85.5524 39.2081 84.5754 39.2081H78.5742V38.1588H81.5399V32.8424H82.5867V38.1588H84.5754C85.4826 38.1588 86.32 37.6691 86.32 36.41V32.8424H87.3667V36.41V36.4799C87.4016 37.4942 88.2041 38.2987 89.4252 38.2987C90.7162 38.2987 91.3442 37.4942 91.3442 36.34V31.4434H92.391V36.1651C92.391 38.3337 91.3093 39.313 89.4252 39.313C88.2041 39.313 87.3318 38.8233 86.8433 38.0189Z" fill="#808285"/>
<path d="M95.0426 41.5863L95.3566 40.607C95.9846 40.8868 96.4382 40.9917 97.0662 40.9917C98.1827 40.9917 98.8457 40.572 98.8457 39.4878V39.2079H98.2176C95.9148 39.2079 93.9609 38.1936 93.9609 35.7453C93.9609 33.7167 95.6706 32.1777 98.2176 32.1777H99.8575V39.3828C99.8575 40.9917 98.9852 42.041 96.9964 42.041C96.4033 42.041 95.845 41.9011 95.0426 41.5863ZM97.7989 38.1587H98.8457V33.227H97.7989C96.3684 33.227 95.0077 34.2413 95.0077 35.7453C95.0077 37.2843 96.2637 38.1587 97.7989 38.1587Z" fill="#808285"/>
<path d="M102.578 28.7168H103.625V38.1604H105.788V39.2097H102.578V28.7168Z" fill="#808285"/>
<path d="M105.615 38.1586H113.779V35.8502C113.779 35.2905 113.675 34.8708 113.396 34.5211C113.116 34.1713 112.628 33.9614 111.965 33.9614H106.697C106.452 33.6816 106.313 33.3669 106.243 32.9122L108.441 28.75H109.523L107.394 32.9471H112C113.012 32.9471 113.64 33.2269 114.163 33.8215C114.617 34.3112 114.791 35.0807 114.791 35.8502V39.2079H105.58V38.1586H105.615Z" fill="#808285"/>
<path d="M0 52.709C0 50.7154 1.67476 49.2114 4.25668 49.2114H4.84982V48.5818H5.89655V55.1923H7.50152V56.2416H4.25668C1.98878 56.2066 0 55.1574 0 52.709ZM4.84982 55.1923V50.2607H3.83799C2.44236 50.2607 1.04672 51.24 1.04672 52.744C1.04672 54.3179 2.30279 55.2273 3.83799 55.2273H4.84982V55.1923ZM2.12834 46.5532C2.12834 46.1685 2.44236 45.8887 2.82616 45.8887C3.20995 45.8887 3.52397 46.1685 3.52397 46.5532C3.52397 46.9729 3.20995 47.2527 2.82616 47.2527C2.47725 47.2527 2.12834 46.9729 2.12834 46.5532ZM4.64048 46.5532C4.64048 46.1685 4.9545 45.8887 5.33829 45.8887C5.75698 45.8887 6.071 46.1685 6.071 46.5532C6.071 46.9729 5.75698 47.2527 5.33829 47.2527C4.9545 47.2527 4.64048 46.9729 4.64048 46.5532Z" fill="#808285"/>
<path d="M7.43164 55.1938H10.1531V49.2129H11.1998V55.1938H13.8167V56.2431H7.43164V55.1938ZM8.61793 58.2368C8.61793 57.852 8.93195 57.5372 9.31574 57.5372C9.69954 57.5372 10.0136 57.817 10.0136 58.2368C10.0136 58.6565 9.69954 58.9013 9.31574 58.9013C8.96684 58.9013 8.61793 58.6565 8.61793 58.2368ZM11.1301 58.2368C11.1301 57.852 11.4441 57.5372 11.8279 57.5372C12.2466 57.5372 12.5606 57.817 12.5606 58.2368C12.5606 58.6565 12.2466 58.9013 11.8279 58.9013C11.4441 58.9013 11.1301 58.6565 11.1301 58.2368Z" fill="#808285"/>
<path d="M13.502 55.1908H15.8047C15.1418 54.6311 14.6533 53.8267 14.6533 52.7075C14.6533 50.6788 16.1885 49.2098 18.8054 49.2098H20.5499V55.1908H21.9106V56.2401H13.5368V55.1908H13.502ZM17.2353 55.1908H19.5032V50.2591H18.3867C16.991 50.2591 15.7001 51.2385 15.7001 52.7424C15.6652 53.7917 16.3281 54.6661 17.2353 55.1908ZM17.4097 47.0413C17.4097 46.6566 17.7237 46.3418 18.1424 46.3418C18.5611 46.3418 18.8751 46.6566 18.8751 47.0413C18.8751 47.461 18.5262 47.7408 18.1424 47.7408C17.7586 47.7408 17.4097 47.496 17.4097 47.0413Z" fill="#808285"/>
<path d="M21.5625 55.1938H24.284V49.2129H25.3307V55.1938H27.9475V56.2431H21.5625V55.1938ZM22.7837 58.2368C22.7837 57.852 23.0977 57.5372 23.4815 57.5372C23.8653 57.5372 24.1793 57.817 24.1793 58.2368C24.1793 58.6565 23.8653 58.9013 23.4815 58.9013C23.0977 58.9013 22.7837 58.6565 22.7837 58.2368ZM25.2609 58.2368C25.2609 57.852 25.5749 57.5372 25.9587 57.5372C26.3774 57.5372 26.6914 57.817 26.6914 58.2368C26.6914 58.6565 26.3774 58.9013 25.9587 58.9013C25.5749 58.9013 25.2609 58.6565 25.2609 58.2368Z" fill="#808285"/>
<path d="M27.6328 55.1916H29.0633V45.748H30.1101V50.0151H34.6459C35.6577 50.0151 36.3206 50.2949 36.844 50.8895C37.2278 51.3442 37.472 52.0787 37.472 52.9531V56.2059H27.6328V55.1916ZM30.1101 51.0294V55.1566H36.4602V52.9182C36.4602 52.3585 36.3555 51.9388 36.0764 51.5891C35.7973 51.2393 35.3437 51.0294 34.6808 51.0294H30.1101ZM32.378 47.7417C32.378 47.3569 32.692 47.0422 33.1107 47.0422C33.5294 47.0422 33.8434 47.3569 33.8434 47.7417C33.8434 48.1614 33.4945 48.4412 33.1107 48.4412C32.7269 48.4412 32.378 48.1614 32.378 47.7417Z" fill="#808285"/>
<path d="M40.0894 58.6215L40.4034 57.6421C41.0315 57.922 41.4851 58.0269 42.1131 58.0269C43.2296 58.0269 43.8925 57.6072 43.8925 56.5229V56.2431H43.2645C40.9617 56.2431 39.0078 55.2288 39.0078 52.7805C39.0078 50.7518 40.7175 49.2129 43.2645 49.2129H44.9044V55.1938H46.2302V56.2431H44.9044V56.453C44.9044 58.0619 44.0321 59.1111 42.0433 59.1111C41.4502 59.0412 40.8919 58.9013 40.0894 58.6215ZM42.8458 55.1938H43.8925V50.2622H42.8458C41.4153 50.2622 40.0545 51.2765 40.0545 52.7805C40.0545 54.3194 41.3106 55.1938 42.8458 55.1938Z" fill="#808285"/>
<path d="M46.2305 55.1916H48.1844V45.748H49.1962V56.2059H46.2305V55.1916Z" fill="#808285"/>
<path d="M53.1043 45.748H52.0576V56.2059H53.1043V45.748Z" fill="#808285"/>
<path d="M60.0468 55.3695C59.4188 54.8098 59.1396 53.7955 59.1396 53.0261V50.4028H60.1864V52.8512C60.1864 53.6906 60.4306 54.2852 60.8842 54.635C61.3727 55.0197 62.0705 55.1946 62.8381 55.1946H67.025V49.2137H68.0717V56.2089H63.0125C61.5471 56.2089 60.7446 55.999 60.0468 55.3695ZM61.6867 48.1294C61.6867 47.7447 62.0007 47.4648 62.3845 47.4648C62.7683 47.4648 63.0823 47.7447 63.0823 48.1294C63.0823 48.5491 62.7683 48.8289 62.3845 48.8289C62.0007 48.8289 61.6867 48.5491 61.6867 48.1294ZM64.1639 48.1294C64.1639 47.7447 64.4779 47.4648 64.8617 47.4648C65.2804 47.4648 65.5945 47.7447 65.5945 48.1294C65.5945 48.5491 65.2804 48.8289 64.8617 48.8289C64.4779 48.8289 64.1639 48.5491 64.1639 48.1294Z" fill="#808285"/>
<path d="M71.7 45.748H70.6533V56.2059H71.7V45.748Z" fill="#808285"/>
<path d="M73.3057 58.9363L73.5848 57.9569C73.829 58.0269 73.9337 58.0269 74.1082 58.0269C74.9106 58.0269 75.0851 57.6072 75.0851 56.453V49.2129H76.1318V56.453C76.1318 58.0619 75.6434 59.0762 74.1779 59.0762C73.8639 59.0412 73.5848 59.0062 73.3057 58.9363Z" fill="#808285"/>
<path d="M78.748 45.748H79.7599V55.1916H81.958V56.2059H78.748V45.748Z" fill="#808285"/>
<path d="M81.7832 55.192H84.7489V49.8756H85.7956V55.192H87.7844C88.6916 55.192 89.529 54.7023 89.529 53.4432V49.8756H90.5757V53.4432V53.5131C90.6106 54.5274 91.4131 55.3319 92.6342 55.3319C93.9252 55.3319 94.5532 54.5274 94.5532 53.3732V48.4766H95.6V53.1634C95.6 53.5131 95.5651 53.8629 95.4953 54.1427C95.8791 54.8422 96.542 55.192 97.7283 55.192V56.2413C96.1582 56.2413 95.5651 55.6467 95.2162 55.0521C94.7626 55.9265 93.8554 56.3812 92.6342 56.3812C91.448 56.3812 90.5757 55.8915 90.0872 55.0521C89.5988 55.7516 88.7963 56.2413 87.8193 56.2413H81.8181V55.192H81.7832Z" fill="#808285"/>
<path d="M97.5547 55.1914H99.1597C98.9503 54.7367 98.8456 54.212 98.8456 53.6524C98.8456 51.5538 100.451 49.875 102.509 49.875C104.638 49.875 106.277 51.5189 106.277 53.6524C106.277 54.212 106.173 54.7367 105.963 55.1914H107.813V56.2406H105.3C104.603 56.9751 103.626 57.4298 102.544 57.4298C101.462 57.4298 100.52 56.9751 99.8575 56.2406H97.5896V55.1914H97.5547ZM105.231 53.6524C105.231 52.0785 104.079 50.9243 102.509 50.9243C100.974 50.9243 99.8575 52.1484 99.8575 53.6524C99.8575 55.1214 100.974 56.3456 102.509 56.3456C104.044 56.3456 105.231 55.1914 105.231 53.6524Z" fill="#808285"/>
<path d="M107.638 55.1916H109.592V45.748H110.638V56.2059H107.638V55.1916Z" fill="#808285"/>
<path d="M114.547 45.748H113.5V56.2059H114.547V45.748Z" fill="#808285"/>
<path d="M140.575 79.9204L142.459 80.515L142.878 80.2002L145.634 78.0667L145.913 77.8568L144.518 74.3242C143.297 76.4228 141.971 78.3465 140.575 79.9204Z" fill="#9AA4AB"/>
<path d="M161.859 91.8125C162.487 92.1273 162.975 92.6519 163.289 93.3165L175.082 90.2036C171.907 83.9428 162.801 65.3705 161.161 54.1781C159.521 43.1256 158.928 37.3546 158.893 26.8967C158.858 19.2719 158.544 5.10652 158.439 0L154.252 0.0699524C153.799 7.06519 152.089 33.3323 151.915 41.4118C151.775 47.3578 151.496 49.1415 150.938 52.7441C150.728 54.0732 150.484 55.6471 150.17 57.7807C149.507 62.5024 147.658 68.2735 145.076 73.2052L147.484 79.2211L147.623 79.4659L147.833 79.8506L147.658 80.2703L146.646 82.7187L147.03 82.6487L148.181 82.4389L148.147 83.5931L148.077 85.2719C149.996 83.5931 151.845 82.7187 153.694 82.7187C158.265 82.7537 160.707 88.0001 161.859 91.8125Z" fill="#9AA4AB"/>
<path d="M217.998 77.4375L230 79.9907V69.8477L217.998 77.4375Z" fill="#77D0CB"/>
<path d="M144.484 51.275L127.98 45.8887L127.422 50.0858L144.484 51.275Z" fill="#00AFAA"/>
<path d="M164.72 101.012C163.952 101.012 163.324 101.641 163.324 102.411C163.324 103.18 163.952 103.81 164.72 103.81C165.487 103.81 166.115 103.18 166.115 102.411C166.115 101.641 165.487 101.012 164.72 101.012Z" fill="#D5D45F"/>
<path d="M166.778 103.949C166.778 103.984 166.743 103.984 166.743 104.019L172.116 109.405L172.326 105.243L166.778 103.949Z" fill="#77D0CB"/>
<path d="M148.285 57.5347C148.529 55.751 148.739 54.3519 148.948 53.1977L128.397 51.7637L144.377 70.371C146.331 66.034 147.762 61.3122 148.285 57.5347Z" fill="#33C0BA"/>
<path d="M149.995 41.3763C150.065 39.0679 150.239 35.2905 150.449 30.8835L147.692 29.8691L149.925 42.9153C149.995 42.4606 149.995 41.9359 149.995 41.3763Z" fill="#00AFAA"/>
<path d="M145.32 83.9417L147.134 83.627L147.029 86.495L145.843 88.1389H144.343L144.552 86.3201L145.32 83.9417Z" fill="#9AA4AB"/>
<path d="M142.843 83.4158V81.632L140.052 80.7227L138.377 81.3522L137.749 82.7513L141.761 84.0104L142.843 83.4158Z" fill="#9AA4AB"/>
<path d="M142.006 87.2305L139.668 89.0842L140.017 92.6518L141.971 92.4769L143.401 89.5739L142.006 87.2305Z" fill="#9AA4AB"/>
<path d="M137.47 85.3414L136.353 87.8247L132.83 87.5099L130.701 85.3414L131.608 84.1172H133.981L137.47 85.3414Z" fill="#9AA4AB"/>
<path d="M138.029 91.3578L135.551 93.6313L134.33 92.3722L135.97 89.9238L138.343 90.2386L138.029 91.3578Z" fill="#9AA4AB"/>
<path d="M139.668 86.9141L140.366 85.0254H141.238L141.622 85.6899L140.645 86.6343L139.668 86.9141Z" fill="#9AA4AB"/>
<path d="M145.739 89.9941L147.135 93.9115L145.809 95.0657L144.309 94.5061L144.588 91.708L145.739 89.9941Z" fill="#9AA4AB"/>
<path d="M143.401 80.9343L146.158 78.8008L146.751 79.955L145.599 82.6831L143.785 83.0679L143.401 80.9343Z" fill="#9AA4AB"/>
<path d="M155.718 61.8039L154.95 60.125L152.647 61.8039L151.984 63.7625L152.822 64.9867L154.182 63.7625L155.718 61.8039Z" fill="white"/>
<path d="M157.566 63.5495L159.032 62.5352L161.335 64.3539L161.788 66.0677L160.986 67.3968L157.671 64.7736L157.566 63.5495Z" fill="white"/>
<path d="M159.696 76.4205L158.056 77.12L156.137 74.9165L156.032 73.1327L157.079 71.9785L159.835 75.1963L159.696 76.4205Z" fill="white"/>
<path d="M159.276 57.082L159.66 61.3142L157.566 62.0836L156.624 60.4747L157.95 57.6067L159.276 57.082Z" fill="white"/>
<path d="M158.648 67.6426L157.008 70.3357L159.625 73.5536L163.079 74.1481L163.672 72.4693L162.102 70.1958L158.648 67.6426Z" fill="white"/>
<path d="M156.451 68.1692L157.637 66.4904L157.149 65.7559L156.381 65.8258L156.137 67.1899L156.451 68.1692Z" fill="white"/>
<path d="M154.287 65.2306L156.171 62.6074L157.078 63.7966L156.939 64.8809L154.287 65.2306Z" fill="white"/>
<path d="M160.776 75.2324L163.812 76.3167L162.905 77.5059L161.858 77.6458L160.776 75.2324Z" fill="white"/>
<path d="M179.269 88.1387C178.187 88.1387 177.28 89.0131 177.28 90.1323C177.28 91.2166 178.187 92.126 179.269 92.126C180.351 92.126 181.258 91.2166 181.258 90.1323C181.223 89.0131 180.351 88.1387 179.269 88.1387Z" fill="#D5D45F"/>
<path d="M188.69 107.376L180.421 93.036C180.072 93.1759 179.654 93.2809 179.235 93.2809C178.642 93.2809 178.084 93.106 177.63 92.8262L166.988 101.255C167.163 101.605 167.302 101.99 167.302 102.445L188.69 107.376Z" fill="#00AFAA"/>
<path d="M150.939 85.168C150.171 85.168 149.543 85.7975 149.543 86.567C149.543 87.3365 150.171 87.9661 150.939 87.9661C151.706 87.9661 152.334 87.3365 152.334 86.567C152.334 85.7975 151.706 85.168 150.939 85.168Z" fill="#D5D45F"/>
<path d="M153.485 86.3564C154.532 86.4963 155.892 86.6712 157.462 86.8811C156.451 85.5869 155.195 84.6426 153.659 84.6426C153.38 84.6426 153.066 84.6776 152.787 84.7475C153.171 85.1672 153.415 85.7268 153.485 86.3564Z" fill="#33C0BA"/>
<path d="M148.32 48.4766C147.344 48.4766 146.541 49.281 146.541 50.2603C146.541 51.2397 147.344 52.0441 148.32 52.0441C149.297 52.0441 150.1 51.2397 150.1 50.2603C150.065 49.281 149.297 48.4766 148.32 48.4766Z" fill="#D5D45F"/>
<path d="M146.54 48.0926L140.295 39.9082L132.2 45.5744L145.528 49.9114C145.598 49.1769 145.982 48.5473 146.54 48.0926Z" fill="#77D0CB"/>
<path d="M148.321 47.4286C148.74 47.4286 149.123 47.5336 149.472 47.6735L146.472 30.1504L137.226 33.2283L148.077 47.4636C148.146 47.4636 148.216 47.4286 148.321 47.4286Z" fill="#77D0CB"/>
<path d="M143.785 86.7398L144.867 83.6969L143.401 83.627L142.599 84.3615L143.785 86.7398Z" fill="#9AA4AB"/>
<path d="M160.428 92.6172C159.347 92.6172 158.439 93.5266 158.439 94.6108C158.439 95.6951 159.347 96.6045 160.428 96.6045C161.51 96.6045 162.417 95.6951 162.417 94.6108C162.417 93.5266 161.51 92.6172 160.428 92.6172Z" fill="#D5D45F"/>
<path d="M159.765 91.5319C159.416 90.5176 158.997 89.4333 158.439 88.454L153.136 87.8594C153.101 87.9293 153.031 88.0343 152.996 88.1042L158.23 92.3713C158.648 91.9516 159.172 91.6368 159.765 91.5319Z" fill="#00AFAA"/>
<path d="M176.582 91.7422L163.533 95.2048C163.358 96.0443 162.905 96.7438 162.207 97.1985L163.707 100.032C164.021 99.8916 164.37 99.8217 164.719 99.8217C165.138 99.8217 165.522 99.9266 165.836 100.102L176.582 91.7772C176.582 91.7772 176.582 91.7772 176.582 91.7422Z" fill="#33C0BA"/>
<path d="M174.21 72.2246C173.826 72.2246 173.512 72.5394 173.512 72.9241C173.512 73.3089 173.826 73.6237 174.21 73.6237C174.593 73.6237 174.907 73.3089 174.907 72.9241C174.907 72.5394 174.593 72.2246 174.21 72.2246Z" fill="#D5D45F"/>
<path d="M173.862 74.604C173.094 74.4291 172.466 73.7646 172.466 72.9251C172.466 72.7852 172.501 72.6453 172.536 72.5054L167.512 69.0078C170.617 76.9474 174.42 84.7471 176.444 88.7344C176.688 88.2097 177.072 87.79 177.56 87.4752L173.862 74.604Z" fill="#A8E0DC"/>
<path d="M168.104 39.2441C167.127 39.2441 166.324 40.0486 166.324 41.0279C166.324 42.0073 167.127 42.8117 168.104 42.8117C169.081 42.8117 169.883 42.0073 169.883 41.0279C169.883 40.0486 169.081 39.2441 168.104 39.2441Z" fill="#D5D45F"/>
<path d="M165.278 41.0266C165.278 40.5719 165.382 40.1522 165.592 39.7675L160.951 35.5703C161.091 38.5783 161.335 41.3414 161.684 44.2794L165.382 41.7611C165.347 41.5163 165.278 41.2714 165.278 41.0266Z" fill="#77D0CB"/>
<path d="M167.895 43.8245C167.267 43.7895 166.709 43.5097 166.255 43.125L161.929 46.063C162.243 48.4414 162.592 50.9946 163.01 53.8977C163.429 56.7657 164.371 60.1234 165.592 63.656L173.792 70.4764L167.895 43.8245Z" fill="#33C0BA"/>
<path d="M183.839 63.6562C182.409 63.6562 181.223 64.8454 181.223 66.2795C181.223 67.7135 182.409 68.9027 183.839 68.9027C185.27 68.9027 186.456 67.7135 186.456 66.2795C186.456 64.8454 185.27 63.6562 183.839 63.6562Z" fill="#D5D45F"/>
<path d="M185.48 69.7063C184.991 69.9511 184.433 70.091 183.84 70.091C182.898 70.091 182.06 69.7413 181.397 69.1816L176.757 72.4344C178.432 73.064 181.99 74.498 190.818 77.9607L185.48 69.7063Z" fill="#A8E0DC"/>
<path d="M180.036 66.3133C180.036 65.1241 180.595 64.1098 181.432 63.4103L169.813 45.2227L175.536 71.2799H175.57L180.385 67.9222C180.176 67.3975 180.036 66.8729 180.036 66.3133Z" fill="#33C0BA"/>
<path d="M183.84 62.5014C183.98 62.5014 184.119 62.5363 184.294 62.5363L189.074 42.9147L170.791 41.9004C170.686 42.2502 170.512 42.5649 170.268 42.8447L182.898 62.6413C183.177 62.5713 183.491 62.5014 183.84 62.5014Z" fill="#33C0BA"/>
<path d="M208.159 60.9277C207.392 60.9277 206.764 61.5573 206.764 62.3268C206.764 63.0963 207.392 63.7258 208.159 63.7258C208.927 63.7258 209.555 63.0963 209.555 62.3268C209.555 61.5573 208.927 60.9277 208.159 60.9277Z" fill="#D5D45F"/>
<path d="M205.996 60.9625L190.469 43.8242L185.794 63.0611C186.492 63.4808 187.015 64.1104 187.329 64.8799L205.647 61.9069C205.682 61.5571 205.821 61.2424 205.996 60.9625Z" fill="#33C0BA"/>
<path d="M215.172 76.0371C214.3 76.0371 213.567 76.7716 213.567 77.646C213.567 78.5204 214.3 79.2549 215.172 79.2549C216.045 79.2549 216.777 78.5204 216.777 77.646C216.777 76.7716 216.045 76.0371 215.172 76.0371Z" fill="#D5D45F"/>
<path d="M214.021 78.7656L214.055 78.8006L214.09 78.7656H214.021Z" fill="#77D0CB"/>
<path d="M217.125 76.0737L228.221 69.0784L212.171 68.3789L215.486 75.1643C216.148 75.2342 216.742 75.584 217.125 76.0737Z" fill="#77D0CB"/>
<path d="M217.335 78.9414C216.881 79.6759 216.079 80.2005 215.172 80.2005C215.102 80.2005 215.067 80.2005 214.997 80.1656L203.972 93.7363L228.43 81.2848L217.335 78.9414Z" fill="#00AFAA"/>
<path d="M192.842 78.2422C192.074 78.2422 191.446 78.8718 191.446 79.6412C191.446 80.4107 192.074 81.0403 192.842 81.0403C193.61 81.0403 194.238 80.4107 194.238 79.6412C194.238 78.8718 193.644 78.2422 192.842 78.2422Z" fill="#D5D45F"/>
<path d="M190.294 79.6764C190.294 79.6065 190.294 79.5715 190.329 79.5015L175.745 73.7305C175.535 74.1152 175.186 74.395 174.768 74.5349L179.548 86.9864C180.245 87.0564 180.908 87.3362 181.397 87.7909L190.468 80.4809C190.329 80.236 190.294 79.9562 190.294 79.6764Z" fill="#33C0BA"/>
<path d="M192.842 77.0883C193.19 77.0883 193.504 77.1583 193.818 77.2982L205.995 63.6925C205.96 63.6225 205.926 63.5875 205.891 63.5176L187.608 66.4906C187.573 67.33 187.259 68.0645 186.771 68.6941L192.248 77.1933C192.423 77.1233 192.632 77.0883 192.842 77.0883Z" fill="#A8E0DC"/>
<path d="M208.647 64.8801C208.473 64.9151 208.333 64.9151 208.159 64.9151C207.81 64.9151 207.496 64.8452 207.217 64.7402L195.04 78.346C195.11 78.4509 195.145 78.5209 195.18 78.6258L212.66 77.2617C212.765 76.5272 213.218 75.8627 213.846 75.5129L208.647 64.8801Z" fill="#77D0CB"/>
<path d="M200.587 94.123C199.61 94.123 198.808 94.9275 198.808 95.9068C198.808 96.8862 199.61 97.6906 200.587 97.6906C201.564 97.6906 202.366 96.8862 202.366 95.9068C202.366 94.9275 201.564 94.123 200.587 94.123Z" fill="#D5D45F"/>
<path d="M197.797 96.1156L181.991 91.6387C181.921 91.7786 181.817 91.9185 181.712 92.0584L191.586 109.232L198.774 98.0393C198.215 97.5846 197.866 96.8851 197.797 96.1156Z" fill="#00AFAA"/>
<path d="M198.842 93.7022L193.19 82.1951C193.085 82.1951 192.98 82.2301 192.841 82.2301C192.318 82.2301 191.794 82.0552 191.375 81.7754L182.199 89.1554C182.304 89.4352 182.374 89.75 182.374 90.0997L198.109 94.5417C198.319 94.1919 198.563 93.9121 198.842 93.7022Z" fill="#33C0BA"/>
<path d="M200.587 93.0714C201.146 93.0714 201.634 93.2463 202.088 93.5261L213.462 79.5356C213.253 79.3258 213.078 79.1159 212.939 78.8711L195.354 80.2701C195.249 80.7598 195.005 81.2145 194.621 81.5643L200.308 93.1414C200.413 93.0714 200.518 93.0714 200.587 93.0714Z" fill="#77D0CB"/>
</svg>
