<svg width="32" height="32" viewBox="0 0 32 32" fill="none" xmlns="http://www.w3.org/2000/svg">
<rect x="0.5" y="0.5" width="31" height="31" rx="3.5" stroke="#989898" stroke-opacity="0.5"/>
<path d="M24 11.0208C23.4103 11.2826 22.7782 11.4584 22.1137 11.5382C22.7919 11.1318 23.313 10.4885 23.5574 9.72303C22.9241 10.0983 22.2197 10.3713 21.473 10.5184C20.8745 9.88011 20.0218 9.48242 19.0781 9.48242C17.2654 9.48242 15.7956 10.951 15.7956 12.7637C15.7956 13.0205 15.8255 13.2711 15.8816 13.5117C13.1539 13.3745 10.7366 12.068 9.11718 10.0821C8.83419 10.5683 8.67337 11.1318 8.67337 11.7327C8.67337 12.8709 9.25183 13.8757 10.1332 14.4654C9.59466 14.4479 9.08851 14.2996 8.64594 14.054C8.64594 14.0677 8.64594 14.0814 8.64594 14.0951C8.64594 15.6859 9.77792 17.0111 11.2777 17.314C11.0034 17.3888 10.7129 17.4287 10.4137 17.4287C10.2018 17.4287 9.99609 17.4088 9.79537 17.3689C10.2143 18.6716 11.426 19.6229 12.8609 19.649C11.7389 20.5292 10.324 21.0528 8.78557 21.0528C8.52003 21.0528 8.25947 21.0378 8.00391 21.0067C9.45503 21.9392 11.1804 22.4815 13.0342 22.4815C19.0706 22.4815 22.3718 17.4811 22.3718 13.1451C22.3718 13.003 22.3681 12.8597 22.3631 12.72C23.0039 12.2575 23.5599 11.6791 24 11.0208Z" fill="#989898" fill-opacity="0.5"/>
</svg>
